build/history/test_case_20220828_153413.vcd
$date
	Sun Aug 28 15:34:13 2022
$end
$version
	Icarus Verilog
$end
$timescale
	1ps
$end
$scope module test_case $end
$scope module u_test_harness $end
$var wire 1 ! scl $end
$var wire 1 " sda $end
$var wire 1 # sda_out $end
$var wire 1 $ scl_out $end
$var wire 1 % read_en $end
$var wire 8 & read_data [7:0] $end
$var wire 1 ' flag_stop $end
$var wire 1 ( flag_start $end
$var wire 1 ) flag_restar $end
$var wire 1 * flag_nack $end
$var wire 1 + flag_ack $end
$var parameter 32 , CLK_PERIOD $end
$var parameter 32 - U_DLY $end
$var reg 1 . clk $end
$var reg 1 / conti_receive $end
$var reg 1 0 conti_write $end
$var reg 1 1 i2c_begin $end
$var reg 1 2 i2c_begin_finish $end
$var reg 1 3 i2c_rw $end
$var reg 8 4 i2c_slave_addr [7:0] $end
$var reg 1 5 init_finish $end
$var reg 1 6 rst_n $end
$var reg 1 7 sda_in $end
$var reg 8 8 write_data [7:0] $end
$var reg 1 9 write_en $end
$scope module u_i2cSlaveTop $end
$var wire 1 . clk $end
$var wire 1 : rst $end
$var wire 1 ! scl $end
$var wire 1 # sda $end
$var wire 8 ; myReg0 [7:0] $end
$scope module u_i2cSlave $end
$var wire 1 . clk $end
$var wire 8 < myReg4 [7:0] $end
$var wire 8 = myReg5 [7:0] $end
$var wire 8 > myReg6 [7:0] $end
$var wire 8 ? myReg7 [7:0] $end
$var wire 1 : rst $end
$var wire 1 ! scl $end
$var wire 1 # sda $end
$var wire 1 @ sdaIn $end
$var wire 1 A writeEn $end
$var wire 1 B sdaOut $end
$var wire 1 C rstSyncToClk $end
$var wire 8 D regAddr [7:0] $end
$var wire 8 E myReg3 [7:0] $end
$var wire 8 F myReg2 [7:0] $end
$var wire 8 G myReg1 [7:0] $end
$var wire 8 H myReg0 [7:0] $end
$var wire 8 I dataToRegIF [7:0] $end
$var wire 8 J dataFromRegIF [7:0] $end
$var wire 1 K clearStartStopDet $end
$var reg 2 L rstPipe [1:0] $end
$var reg 1 M sclDeb $end
$var reg 10 N sclDelayed [9:0] $end
$var reg 10 O sclPipe [9:0] $end
$var reg 1 P sdaDeb $end
$var reg 4 Q sdaDelayed [3:0] $end
$var reg 10 R sdaPipe [9:0] $end
$var reg 1 S startEdgeDet $end
$var reg 2 T startStopDetState [1:0] $end
$scope module u_registerInterface $end
$var wire 1 . clk $end
$var wire 8 U myReg4 [7:0] $end
$var wire 8 V myReg5 [7:0] $end
$var wire 8 W myReg6 [7:0] $end
$var wire 8 X myReg7 [7:0] $end
$var wire 1 A writeEn $end
$var wire 8 Y dataIn [7:0] $end
$var wire 8 Z addr [7:0] $end
$var reg 8 [ dataOut [7:0] $end
$var reg 8 \ myReg0 [7:0] $end
$var reg 8 ] myReg1 [7:0] $end
$var reg 8 ^ myReg2 [7:0] $end
$var reg 8 _ myReg3 [7:0] $end
$upscope $end
$scope module u_serialInterface $end
$var wire 1 . clk $end
$var wire 8 ` dataIn [7:0] $end
$var wire 1 a rst $end
$var wire 1 b scl $end
$var wire 1 P sdaIn $end
$var wire 2 c startStopDetState [1:0] $end
$var reg 4 d CurrState_SISt [3:0] $end
$var reg 4 e NextState_SISt [3:0] $end
$var reg 3 f bitCnt [2:0] $end
$var reg 1 K clearStartStopDet $end
$var reg 8 g dataOut [7:0] $end
$var reg 3 h next_bitCnt [2:0] $end
$var reg 1 i next_clearStartStopDet $end
$var reg 8 j next_dataOut [7:0] $end
$var reg 8 k next_regAddr [7:0] $end
$var reg 8 l next_rxData [7:0] $end
$var reg 1 m next_sdaOut $end
$var reg 2 n next_streamSt [1:0] $end
$var reg 8 o next_txData [7:0] $end
$var reg 1 p next_writeEn $end
$var reg 8 q regAddr [7:0] $end
$var reg 8 r rxData [7:0] $end
$var reg 1 B sdaOut $end
$var reg 2 s streamSt [1:0] $end
$var reg 8 t txData [7:0] $end
$var reg 1 A writeEn $end
$upscope $end
$upscope $end
$upscope $end
$scope module u_i2c_master $end
$var wire 1 . clk $end
$var wire 1 / conti_receive $end
$var wire 1 0 conti_write $end
$var wire 1 1 i2c_begin $end
$var wire 1 u i2c_begin_sig $end
$var wire 1 3 i2c_rw $end
$var wire 1 5 init_finish $end
$var wire 1 6 rst_n $end
$var wire 1 v sda_in $end
$var wire 8 w slave_addr [7:0] $end
$var wire 8 x write_data [7:0] $end
$var wire 1 9 write_en $end
$var wire 1 y sda_filter $end
$var wire 1 z cnt_clk_reload $end
$var parameter 32 { FILTER $end
$var parameter 32 | FILTER_WIDTH $end
$var parameter 32 } PRESCALER $end
$var parameter 4 ~ STATE_ACK0 $end
$var parameter 4 !" STATE_ACK1 $end
$var parameter 4 "" STATE_ACK2 $end
$var parameter 4 #" STATE_ADDR $end
$var parameter 4 $" STATE_IDLE $end
$var parameter 4 %" STATE_NACK $end
$var parameter 4 &" STATE_RD_DAT $end
$var parameter 4 '" STATE_RESTART $end
$var parameter 4 (" STATE_START $end
$var parameter 4 )" STATE_STOP $end
$var parameter 4 *" STATE_WR_DAT $end
$var parameter 32 +" U_DLY $end
$var reg 8 ," cnt_clk [7:0] $end
$var reg 8 -" cnt_sda [7:0] $end
$var reg 8 ." curr_state [7:0] $end
$var reg 8 /" data_send [7:0] $end
$var reg 1 + flag_ack $end
$var reg 1 * flag_nack $end
$var reg 1 ) flag_restar $end
$var reg 1 ( flag_start $end
$var reg 1 ' flag_stop $end
$var reg 4 0" i2c_begin_dly [3:0] $end
$var reg 8 1" next_state [7:0] $end
$var reg 8 2" read_data [7:0] $end
$var reg 1 % read_en $end
$var reg 4 3" scl_cnt [3:0] $end
$var reg 1 4" scl_dly $end
$var reg 1 5" scl_neg $end
$var reg 1 $ scl_out $end
$var reg 1 6" scl_pos $end
$var reg 1 7" sda_out $end
$scope begin genblk1 $end
$var reg 1 8" sda_filter_reg $end
$var reg 2 9" sda_pipe [1:0] $end
$upscope $end
$upscope $end
$scope task generate_i2c_start $end
$var reg 16 :" begin_time [15:0] $end
$upscope $end
$scope task i2c_eeprom_random_read $end
$var reg 8 ;" addr [7:0] $end
$var reg 8 <" recv_data [7:0] $end
$var reg 16 =" word_address [15:0] $end
$upscope $end
$scope task i2c_recv_bytes $end
$var reg 8 >" addr [7:0] $end
$var reg 8 ?" num [7:0] $end
$var reg 8 @" recv_data [7:0] $end
$var integer 32 A" i [31:0] $end
$upscope $end
$scope task i2c_recv_one_byte $end
$var reg 8 B" addr [7:0] $end
$var reg 8 C" recv_data [7:0] $end
$upscope $end
$scope task i2c_send_bytes $end
$var reg 8 D" addr [7:0] $end
$var reg 64 E" bytes [63:0] $end
$var reg 8 F" num [7:0] $end
$var reg 64 G" temp_bytes [63:0] $end
$var integer 32 H" i [31:0] $end
$upscope $end
$scope task i2c_send_one_byte $end
$var reg 8 I" addr [7:0] $end
$var reg 8 J" byte [7:0] $end
$upscope $end
$scope task i2c_sim_rd $end
$var reg 8 K" num [7:0] $end
$var reg 8 L" sim_rd [7:0] $end
$var integer 32 M" i [31:0] $end
$var integer 32 N" j [31:0] $end
$upscope $end
$scope task i2c_sim_wr $end
$var reg 64 O" bytes [63:0] $end
$var reg 8 P" data_send [7:0] $end
$var reg 8 Q" num [7:0] $end
$var integer 32 R" i [31:0] $end
$var integer 32 S" j [31:0] $end
$upscope $end
$upscope $end
$upscope $end
$enddefinitions $end
$comment Show the parameter values. $end
$dumpall
b1 +"
b100 *"
b1001 )"
b1 ("
b1010 '"
b110 &"
b1000 %"
b0 $"
b10 #"
b111 ""
b101 !"
b11 ~
b11110 }
b10 |
b1 {
b1 -
b1010 ,
$end
#0
$dumpvars
bx S"
bx R"
bx Q"
bx P"
bx O"
bx N"
bx M"
bx L"
bx K"
bx J"
bx I"
bx H"
bx G"
bx F"
bx E"
bx D"
bx C"
bx B"
bx A"
bx @"
bx ?"
bx >"
bx ="
bx <"
bx ;"
bx :"
bx 9"
x8"
x7"
x6"
x5"
x4"
bx 3"
bx 2"
b0 1"
bx 0"
bx /"
bx ."
bx -"
bx ,"
xz
xy
b0 x
b0 w
0v
xu
bx t
bx s
bx r
bx q
xp
bx o
bx n
xm
bx l
bx k
bx j
xi
bx h
bx g
bx f
bx e
bx d
bx c
xb
xa
bx `
bx _
bx ^
bx ]
bx \
bx [
bx Z
bx Y
b1111000 X
b1010110 W
b110100 V
b10010 U
bx T
xS
bx R
bx Q
xP
bx O
bx N
xM
bx L
xK
bx J
bx I
bx H
bx G
bx F
bx E
bx D
xC
xB
xA
x@
b1111000 ?
b1010110 >
b110100 =
b10010 <
bx ;
0:
09
b0 8
07
16
x5
b0 4
03
02
01
00
0/
0.
x+
x*
x)
x(
x'
bx &
x%
x$
x#
x"
x!
$end
#5000
b0 J
b0 [
b0 `
bx0 L
0S
1.
#6000
bx0 9"
b0 ."
1!
1$
17"
bx0 0"
06"
05"
0%
0*
0+
0(
0'
0)
#10000
0.
#15000
0a
0C
bx1 O
b0 L
1.
#16000
0z
b0 &
b0 2"
14"
b0 ,"
bx00 0"
b0 9"
#20000
0.
#25000
bx11 O
1.
#26000
0u
0y
08"
bx000 0"
#30000
0.
#35000
bx111 O
1:
06
1.
#36000
b0 -"
b1 3"
b0 0"
b0 /"
1y
18"
b11 9"
#40000
0.
#45000
1a
1C
b11 L
bx1111 O
1.
#50000
0.
#55000
0i
b0 h
b0 j
0p
1m
b0 l
b0 o
b0 n
b1 e
1"
1@
1#
1b
b0 T
b0 c
b1111 Q
b1111111111 N
1M
b1111111111 O
1P
b1111111111 R
b0 f
b0 r
b0 t
b0 s
0K
b0 I
b0 Y
b0 g
0A
1B
b0 d
1.
#60000
0.
#65000
1.
#70000
0.
#75000
0:
16
1.
#76000
b10 9"
#80000
0.
#85000
b10 L
1.
#86000
b0 9"
#90000
0.
#95000
0a
0C
b0 L
1.
#96000
0y
08"
#100000
11
b10100 :"
b1010101000000011 G"
10
b0 L"
b10 F"
b1010101000000011 E"
b1111000 D"
b11 K"
0.
15
#105000
b1000 e
b1 d
1.
#106000
b1 0"
#110000
0.
#115000
b1 l
b111 e
b1000 d
1.
#116000
b11 0"
#120000
b0 N"
b0 M"
0.
12
01
#125000
b111 d
b1 r
1.
#126000
b1 1"
1u
b110 0"
#130000
0.
#135000
1.
#136000
0u
b1111000 4
b1111000 w
1(
b1100 0"
b1 ."
#140000
0.
#145000
1.
#146000
b1111000 /"
b1000 0"
b1 ,"
0(
#150000
0.
#155000
1.
#156000
b10 ,"
b0 0"
#160000
0.
#165000
1.
#166000
b11 ,"
#170000
0.
#175000
1.
#176000
b100 ,"
#180000
0.
#185000
1.
#186000
b101 ,"
#190000
0.
#195000
1.
#196000
b110 ,"
#200000
0.
#205000
1.
#206000
b111 ,"
#210000
0.
#215000
1.
#216000
b1000 ,"
#220000
0.
#225000
1.
#226000
b1001 ,"
#230000
0.
#235000
1.
#236000
b1010 ,"
#240000
0.
#245000
1.
#246000
b1011 ,"
#250000
0.
#255000
1.
#256000
b1100 ,"
#260000
0.
#265000
1.
#266000
b1101 ,"
#270000
0.
#275000
1.
#276000
b1110 ,"
#280000
0.
#285000
1.
#286000
b1111 ,"
#290000
0.
#295000
1.
#296000
b10000 ,"
#300000
0.
#305000
1.
#306000
b10001 ,"
#310000
0.
#315000
1.
#316000
b10010 ,"
#320000
0.
#325000
1.
#326000
b10011 ,"
#330000
0.
#335000
1.
#336000
b10100 ,"
#340000
0.
#345000
1.
#346000
b10101 ,"
#350000
0.
#355000
1.
#356000
b10110 ,"
#360000
0.
#365000
1.
#366000
b10111 ,"
#370000
0.
#375000
1.
#376000
b11000 ,"
#380000
0.
#385000
1.
#386000
b11001 ,"
#390000
0.
#395000
1.
#396000
b11010 ,"
#400000
0.
#405000
1.
#406000
b11011 ,"
#410000
0.
#415000
1.
#416000
b11100 ,"
#420000
0.
#425000
1.
#426000
b11101 ,"
#430000
0.
#435000
1.
#436000
1z
b11110 ,"
#440000
0.
#445000
1.
#446000
0z
b0 ,"
b11 3"
#450000
0.
#455000
1.
#456000
b1 ,"
#460000
0.
#465000
1.
#466000
b10 ,"
#470000
0.
#475000
1.
#476000
b11 ,"
#480000
0.
#485000
1.
#486000
b100 ,"
#490000
0.
#495000
1.
#496000
b101 ,"
#500000
0.
#505000
1.
#506000
b110 ,"
#510000
0.
#515000
1.
#516000
b111 ,"
#520000
0.
#525000
1.
#526000
b1000 ,"
#530000
0.
#535000
1.
#536000
b1001 ,"
#540000
0.
#545000
1.
#546000
b1010 ,"
#550000
0.
#555000
1.
#556000
b1011 ,"
#560000
0.
#565000
1.
#566000
b1100 ,"
#570000
0.
#575000
1.
#576000
b1101 ,"
#580000
0.
#585000
1.
#586000
b1110 ,"
#590000
0.
#595000
1.
#596000
b1111 ,"
#600000
0.
#605000
1.
#606000
b10000 ,"
#610000
0.
#615000
1.
#616000
b10001 ,"
#620000
0.
#625000
1.
#626000
b10010 ,"
#630000
0.
#635000
1.
#636000
b10011 ,"
#640000
0.
#645000
1.
#646000
b10100 ,"
#650000
0.
#655000
1.
#656000
b10101 ,"
#660000
0.
#665000
1.
#666000
b10110 ,"
#670000
0.
#675000
1.
#676000
b10111 ,"
#680000
0.
#685000
1.
#686000
b11000 ,"
#690000
0.
#695000
1.
#696000
b11001 ,"
#700000
0.
#705000
1.
#706000
b11010 ,"
#710000
0.
#715000
1.
#716000
b11011 ,"
#720000
0.
#725000
1.
#726000
b11100 ,"
#730000
0.
#735000
1.
#736000
b11101 ,"
#740000
0.
#745000
1.
#746000
1z
b11110 ,"
#750000
0.
#755000
1.
#756000
0"
0z
b111 3"
b0 ,"
0@
0#
07"
#760000
0.
#765000
b1111111110 R
1.
#766000
b1 ,"
#770000
0.
#775000
b1111111100 R
1.
#776000
b10 ,"
#780000
0.
#785000
b1111111000 R
1.
#786000
b11 ,"
#790000
0.
#795000
b1111110000 R
1.
#796000
b100 ,"
#800000
0.
#805000
b1111100000 R
1.
#806000
b101 ,"
#810000
0.
#815000
b1111000000 R
1.
#816000
b110 ,"
#820000
0.
#825000
b1110000000 R
1.
#826000
b111 ,"
#830000
0.
#835000
b1100000000 R
1.
#836000
b1000 ,"
#840000
0.
#845000
b1000000000 R
1.
#846000
b1001 ,"
#850000
0.
#855000
b0 R
1.
#856000
b1010 ,"
#860000
0.
#865000
0P
1.
#866000
b1011 ,"
#870000
0.
#875000
b1110 Q
1.
#876000
b1100 ,"
#880000
0.
#885000
b1100 Q
1.
#886000
b1101 ,"
#890000
0.
#895000
b1000 Q
1.
#896000
b1110 ,"
#900000
0.
#905000
1a
b0 Q
b1 T
b1 c
1S
1.
#906000
b1111 ,"
#910000
0.
#915000
b0 l
b1 e
0a
0S
b0 r
b0 d
1.
#916000
b10000 ,"
#920000
0.
#925000
b1000 e
b1 d
1.
#926000
b10001 ,"
#930000
0.
#935000
b111 e
b1000 d
1.
#936000
b10010 ,"
#940000
0.
#945000
b111 d
1.
#946000
b10011 ,"
#950000
0.
#955000
1.
#956000
b10100 ,"
#960000
0.
#965000
1.
#966000
b10101 ,"
#970000
0.
#975000
1.
#976000
b10110 ,"
#980000
0.
#985000
1.
#986000
b10111 ,"
#990000
0.
#995000
1.
#996000
b11000 ,"
#1000000
0.
#1005000
1.
#1006000
b11001 ,"
#1010000
0.
#1015000
1.
#1016000
b11010 ,"
#1020000
0.
#1025000
1.
#1026000
b11011 ,"
#1030000
0.
#1035000
1.
#1036000
b11100 ,"
#1040000
0.
#1045000
1.
#1046000
b11101 ,"
#1050000
0.
#1055000
1.
#1056000
1z
b11110 ,"
#1060000
0.
#1065000
1.
#1066000
0z
b1 1"
b0 ,"
b1111 3"
#1070000
0.
#1075000
1.
#1076000
b1 ,"
#1080000
0.
#1085000
1.
#1086000
b10 ,"
#1090000
0.
#1095000
1.
#1096000
b11 ,"
#1100000
0.
#1105000
1.
#1106000
b100 ,"
#1110000
0.
#1115000
1.
#1116000
b101 ,"
#1120000
0.
#1125000
1.
#1126000
b110 ,"
#1130000
0.
#1135000
1.
#1136000
b111 ,"
#1140000
0.
#1145000
1.
#1146000
b1000 ,"
#1150000
0.
#1155000
1.
#1156000
b1001 ,"
#1160000
0.
#1165000
1.
#1166000
b1010 ,"
#1170000
0.
#1175000
1.
#1176000
b1011 ,"
#1180000
0.
#1185000
1.
#1186000
b1100 ,"
#1190000
0.
#1195000
1.
#1196000
b1101 ,"
#1200000
0.
#1205000
1.
#1206000
b1110 ,"
#1210000
0.
#1215000
1.
#1216000
b1111 ,"
#1220000
0.
#1225000
1.
#1226000
b10000 ,"
#1230000
0.
#1235000
1.
#1236000
b10001 ,"
#1240000
0.
#1245000
1.
#1246000
b10010 ,"
#1250000
0.
#1255000
1.
#1256000
b10011 ,"
#1260000
0.
#1265000
1.
#1266000
b10100 ,"
#1270000
0.
#1275000
1.
#1276000
b10101 ,"
#1280000
0.
#1285000
1.
#1286000
b10110 ,"
#1290000
0.
#1295000
1.
#1296000
b10111 ,"
#1300000
0.
#1305000
1.
#1306000
b11000 ,"
#1310000
0.
#1315000
1.
#1316000
b11001 ,"
#1320000
0.
#1325000
1.
#1326000
b11010 ,"
#1330000
0.
#1335000
1.
#1336000
b11011 ,"
#1340000
0.
#1345000
1.
#1346000
b11100 ,"
#1350000
0.
#1355000
1.
#1356000
b11101 ,"
#1360000
0.
#1365000
1.
#1366000
b10 1"
1z
b11110 ,"
#1370000
0.
#1375000
1.
#1376000
0z
b1 3"
b0 ,"
0!
0$
b10 ."
#1380000
0.
#1385000
b1111111110 O
1.
#1386000
b1 ,"
04"
15"
#1390000
0.
#1395000
b1111111100 O
1.
#1396000
05"
b10 ,"
b11110001 /"
#1400000
0.
#1405000
b1111111000 O
1.
#1406000
b11 ,"
#1410000
0.
#1415000
b1111110000 O
1.
#1416000
b100 ,"
#1420000
0.
#1425000
b1111100000 O
1.
#1426000
b101 ,"
#1430000
0.
#1435000
b1111000000 O
1.
#1436000
b110 ,"
#1440000
0.
#1445000
b1110000000 O
1.
#1446000
b111 ,"
#1450000
0.
#1455000
b1100000000 O
1.
#1456000
b1000 ,"
#1460000
0.
#1465000
b1000000000 O
1.
#1466000
b1001 ,"
#1470000
0.
#1475000
b0 O
1.
#1476000
b1010 ,"
#1480000
0.
#1485000
0M
1.
#1486000
b1011 ,"
#1490000
0.
#1495000
b1111111110 N
1.
#1496000
b1100 ,"
#1500000
0.
#1505000
b1111111100 N
1.
#1506000
b1101 ,"
#1510000
0.
#1515000
b1111111000 N
1.
#1516000
b1110 ,"
#1520000
0.
#1525000
b1111110000 N
1.
#1526000
b1111 ,"
#1530000
0.
#1535000
b1111100000 N
1.
#1536000
b10000 ,"
#1540000
0.
#1545000
b1111000000 N
1.
#1546000
b10001 ,"
#1550000
0.
#1555000
b1110000000 N
1.
#1556000
b10010 ,"
#1560000
0.
#1565000
b1100000000 N
1.
#1566000
b10011 ,"
#1570000
0.
#1575000
b1000000000 N
1.
#1576000
b10100 ,"
#1580000
0.
#1585000
b1011 e
0b
b0 N
1.
#1586000
b10101 ,"
#1590000
0.
#1595000
b1011 d
1.
#1596000
b10110 ,"
#1600000
0.
#1605000
1.
#1606000
b10111 ,"
#1610000
0.
#1615000
1.
#1616000
b11000 ,"
#1620000
0.
#1625000
1.
#1626000
b11001 ,"
#1630000
0.
#1635000
1.
#1636000
b11010 ,"
#1640000
0.
#1645000
1.
#1646000
b11011 ,"
#1650000
0.
#1655000
1.
#1656000
b11100 ,"
#1660000
0.
#1665000
1.
#1666000
b11101 ,"
#1670000
0.
#1675000
1.
#1676000
1z
b11110 ,"
#1680000
0.
#1685000
1.
#1686000
0z
b0 ,"
b11 3"
#1690000
0.
#1695000
1.
#1696000
b1 ,"
#1700000
0.
#1705000
1.
#1706000
b10 ,"
#1710000
0.
#1715000
1.
#1716000
b11 ,"
#1720000
0.
#1725000
1.
#1726000
b100 ,"
#1730000
0.
#1735000
1.
#1736000
b101 ,"
#1740000
0.
#1745000
1.
#1746000
b110 ,"
#1750000
0.
#1755000
1.
#1756000
b111 ,"
#1760000
0.
#1765000
1.
#1766000
b1000 ,"
#1770000
0.
#1775000
1.
#1776000
b1001 ,"
#1780000
0.
#1785000
1.
#1786000
b1010 ,"
#1790000
0.
#1795000
1.
#1796000
b1011 ,"
#1800000
0.
#1805000
1.
#1806000
b1100 ,"
#1810000
0.
#1815000
1.
#1816000
b1101 ,"
#1820000
0.
#1825000
1.
#1826000
b1110 ,"
#1830000
0.
#1835000
1.
#1836000
b1111 ,"
#1840000
0.
#1845000
1.
#1846000
b10000 ,"
#1850000
0.
#1855000
1.
#1856000
b10001 ,"
#1860000
0.
#1865000
1.
#1866000
b10010 ,"
#1870000
0.
#1875000
1.
#1876000
b10011 ,"
#1880000
0.
#1885000
1.
#1886000
b10100 ,"
#1890000
0.
#1895000
1.
#1896000
b10101 ,"
#1900000
0.
#1905000
1.
#1906000
b10110 ,"
#1910000
0.
#1915000
1.
#1916000
b10111 ,"
#1920000
0.
#1925000
1.
#1926000
b11000 ,"
#1930000
0.
#1935000
1.
#1936000
b11001 ,"
#1940000
0.
#1945000
1.
#1946000
b11010 ,"
#1950000
0.
#1955000
1.
#1956000
b11011 ,"
#1960000
0.
#1965000
1.
#1966000
b11100 ,"
#1970000
0.
#1975000
1.
#1976000
b11101 ,"
#1980000
0.
#1985000
1.
#1986000
1z
b11110 ,"
#1990000
0.
#1995000
1.
#1996000
0z
b111 3"
b0 ,"
#2000000
0.
#2005000
1.
#2006000
b1 ,"
#2010000
0.
#2015000
1.
#2016000
b10 ,"
#2020000
0.
#2025000
1.
#2026000
b11 ,"
#2030000
0.
#2035000
1.
#2036000
b100 ,"
#2040000
0.
#2045000
1.
#2046000
b101 ,"
#2050000
0.
#2055000
1.
#2056000
b110 ,"
#2060000
0.
#2065000
1.
#2066000
b111 ,"
#2070000
0.
#2075000
1.
#2076000
b1000 ,"
#2080000
0.
#2085000
1.
#2086000
b1001 ,"
#2090000
0.
#2095000
1.
#2096000
b1010 ,"
#2100000
0.
#2105000
1.
#2106000
b1011 ,"
#2110000
0.
#2115000
1.
#2116000
b1100 ,"
#2120000
0.
#2125000
1.
#2126000
b1101 ,"
#2130000
0.
#2135000
1.
#2136000
b1110 ,"
#2140000
0.
#2145000
1.
#2146000
b1111 ,"
#2150000
0.
#2155000
1.
#2156000
b10000 ,"
#2160000
0.
#2165000
1.
#2166000
b10001 ,"
#2170000
0.
#2175000
1.
#2176000
b10010 ,"
#2180000
0.
#2185000
1.
#2186000
b10011 ,"
#2190000
0.
#2195000
1.
#2196000
b10100 ,"
#2200000
0.
#2205000
1.
#2206000
b10101 ,"
#2210000
0.
#2215000
1.
#2216000
b10110 ,"
#2220000
0.
#2225000
1.
#2226000
b10111 ,"
#2230000
0.
#2235000
1.
#2236000
b11000 ,"
#2240000
0.
#2245000
1.
#2246000
b11001 ,"
#2250000
0.
#2255000
1.
#2256000
b11010 ,"
#2260000
0.
#2265000
1.
#2266000
b11011 ,"
#2270000
0.
#2275000
1.
#2276000
b11100 ,"
#2280000
0.
#2285000
1.
#2286000
b11101 ,"
#2290000
0.
#2295000
1.
#2296000
1z
b11110 ,"
#2300000
0.
#2305000
1.
#2306000
0z
b0 ,"
b1111 3"
#2310000
0.
#2315000
1.
#2316000
b1 ,"
#2320000
0.
#2325000
1.
#2326000
b10 ,"
#2330000
0.
#2335000
1.
#2336000
b11 ,"
#2340000
0.
#2345000
1.
#2346000
b100 ,"
#2350000
0.
#2355000
1.
#2356000
b101 ,"
#2360000
0.
#2365000
1.
#2366000
b110 ,"
#2370000
0.
#2375000
1.
#2376000
b111 ,"
#2380000
0.
#2385000
1.
#2386000
b1000 ,"
#2390000
0.
#2395000
1.
#2396000
b1001 ,"
#2400000
0.
#2405000
1.
#2406000
b1010 ,"
#2410000
0.
#2415000
1.
#2416000
b1011 ,"
#2420000
0.
#2425000
1.
#2426000
b1100 ,"
#2430000
0.
#2435000
1.
#2436000
b1101 ,"
#2440000
0.
#2445000
1.
#2446000
b1110 ,"
#2450000
0.
#2455000
1.
#2456000
b1111 ,"
#2460000
0.
#2465000
1.
#2466000
b10000 ,"
#2470000
0.
#2475000
1.
#2476000
b10001 ,"
#2480000
0.
#2485000
1.
#2486000
b10010 ,"
#2490000
0.
#2495000
1.
#2496000
b10011 ,"
#2500000
0.
#2505000
1.
#2506000
b10100 ,"
#2510000
0.
#2515000
1.
#2516000
b10101 ,"
#2520000
0.
#2525000
1.
#2526000
b10110 ,"
#2530000
0.
#2535000
1.
#2536000
b10111 ,"
#2540000
0.
#2545000
1.
#2546000
b11000 ,"
#2550000
0.
#2555000
1.
#2556000
b11001 ,"
#2560000
0.
#2565000
1.
#2566000
b11010 ,"
#2570000
0.
#2575000
1.
#2576000
b11011 ,"
#2580000
0.
#2585000
1.
#2586000
b11100 ,"
#2590000
0.
#2595000
1.
#2596000
b11101 ,"
#2600000
0.
#2605000
1.
#2606000
1z
b11110 ,"
#2610000
0.
#2615000
1.
#2616000
0z
b1 N"
b1 3"
b0 ,"
1!
1$
#2620000
0.
#2625000
b1 O
1.
#2626000
b1 ,"
14"
16"
#2630000
0.
#2635000
b11 O
1.
#2636000
b1 -"
06"
b10 ,"
#2640000
0.
#2645000
b111 O
1.
#2646000
b11 ,"
#2650000
0.
#2655000
b1111 O
1.
#2656000
b100 ,"
#2660000
0.
#2665000
b11111 O
1.
#2666000
b101 ,"
#2670000
0.
#2675000
b111111 O
1.
#2676000
b110 ,"
#2680000
0.
#2685000
b1111111 O
1.
#2686000
b111 ,"
#2690000
0.
#2695000
b11111111 O
1.
#2696000
b1000 ,"
#2700000
0.
#2705000
b111111111 O
1.
#2706000
b1001 ,"
#2710000
0.
#2715000
b1111111111 O
1.
#2716000
b1010 ,"
#2720000
0.
#2725000
1M
1.
#2726000
b1011 ,"
#2730000
0.
#2735000
b1 N
1.
#2736000
b1100 ,"
#2740000
0.
#2745000
b11 N
1.
#2746000
b1101 ,"
#2750000
0.
#2755000
b111 N
1.
#2756000
b1110 ,"
#2760000
0.
#2765000
b1111 N
1.
#2766000
b1111 ,"
#2770000
0.
#2775000
b11111 N
1.
#2776000
b10000 ,"
#2780000
0.
#2785000
b111111 N
1.
#2786000
b10001 ,"
#2790000
0.
#2795000
b1111111 N
1.
#2796000
b10010 ,"
#2800000
0.
#2805000
b11111111 N
1.
#2806000
b10011 ,"
#2810000
0.
#2815000
b111111111 N
1.
#2816000
b10100 ,"
#2820000
0.
#2825000
b1010 e
1b
b1111111111 N
1.
#2826000
b10101 ,"
#2830000
0.
#2835000
b1010 d
1.
#2836000
b10110 ,"
#2840000
0.
#2845000
1.
#2846000
b10111 ,"
#2850000
0.
#2855000
1.
#2856000
b11000 ,"
#2860000
0.
#2865000
1.
#2866000
b11001 ,"
#2870000
0.
#2875000
1.
#2876000
b11010 ,"
#2880000
0.
#2885000
1.
#2886000
b11011 ,"
#2890000
0.
#2895000
1.
#2896000
b11100 ,"
#2900000
0.
#2905000
1.
#2906000
b11101 ,"
#2910000
0.
#2915000
1.
#2916000
1z
b11110 ,"
#2920000
0.
#2925000
1.
#2926000
0z
b0 ,"
b11 3"
#2930000
0.
#2935000
1.
#2936000
b1 ,"
#2940000
0.
#2945000
1.
#2946000
b10 ,"
#2950000
0.
#2955000
1.
#2956000
b11 ,"
#2960000
0.
#2965000
1.
#2966000
b100 ,"
#2970000
0.
#2975000
1.
#2976000
b101 ,"
#2980000
0.
#2985000
1.
#2986000
b110 ,"
#2990000
0.
#2995000
1.
#2996000
b111 ,"
#3000000
0.
#3005000
1.
#3006000
b1000 ,"
#3010000
0.
#3015000
1.
#3016000
b1001 ,"
#3020000
0.
#3025000
1.
#3026000
b1010 ,"
#3030000
0.
#3035000
1.
#3036000
b1011 ,"
#3040000
0.
#3045000
1.
#3046000
b1100 ,"
#3050000
0.
#3055000
1.
#3056000
b1101 ,"
#3060000
0.
#3065000
1.
#3066000
b1110 ,"
#3070000
0.
#3075000
1.
#3076000
b1111 ,"
#3080000
0.
#3085000
1.
#3086000
b10000 ,"
#3090000
0.
#3095000
1.
#3096000
b10001 ,"
#3100000
0.
#3105000
1.
#3106000
b10010 ,"
#3110000
0.
#3115000
1.
#3116000
b10011 ,"
#3120000
0.
#3125000
1.
#3126000
b10100 ,"
#3130000
0.
#3135000
1.
#3136000
b10101 ,"
#3140000
0.
#3145000
1.
#3146000
b10110 ,"
#3150000
0.
#3155000
1.
#3156000
b10111 ,"
#3160000
0.
#3165000
1.
#3166000
b11000 ,"
#3170000
0.
#3175000
1.
#3176000
b11001 ,"
#3180000
0.
#3185000
1.
#3186000
b11010 ,"
#3190000
0.
#3195000
1.
#3196000
b11011 ,"
#3200000
0.
#3205000
1.
#3206000
b11100 ,"
#3210000
0.
#3215000
1.
#3216000
b11101 ,"
#3220000
0.
#3225000
1.
#3226000
1z
b11110 ,"
#3230000
0.
#3235000
1.
#3236000
0z
b111 3"
b0 ,"
#3240000
0.
#3245000
1.
#3246000
b1 ,"
#3250000
0.
#3255000
1.
#3256000
b10 ,"
#3260000
0.
#3265000
1.
#3266000
b11 ,"
#3270000
0.
#3275000
1.
#3276000
b100 ,"
#3280000
0.
#3285000
1.
#3286000
b101 ,"
#3290000
0.
#3295000
1.
#3296000
b110 ,"
#3300000
0.
#3305000
1.
#3306000
b111 ,"
#3310000
0.
#3315000
1.
#3316000
b1000 ,"
#3320000
0.
#3325000
1.
#3326000
b1001 ,"
#3330000
0.
#3335000
1.
#3336000
b1010 ,"
#3340000
0.
#3345000
1.
#3346000
b1011 ,"
#3350000
0.
#3355000
1.
#3356000
b1100 ,"
#3360000
0.
#3365000
1.
#3366000
b1101 ,"
#3370000
0.
#3375000
1.
#3376000
b1110 ,"
#3380000
0.
#3385000
1.
#3386000
b1111 ,"
