build/history/test_case_20220828_223608.vcd
$date
	Sun Aug 28 22:36:08 2022
$end
$version
	Icarus Verilog
$end
$timescale
	10ps
$end
$scope module test_case $end
$scope module u_test_harness $end
$var wire 1 ! scl $end
$var wire 1 " sda $end
$var parameter 32 # CLK_PERIOD $end
$var parameter 32 $ U_DLY $end
$var reg 1 % clk $end
$var reg 1 & rst_n $end
$scope module memory $end
$var wire 1 ' A0 $end
$var wire 1 ( A1 $end
$var wire 1 ) A2 $end
$var wire 8 * MemoryByte00 [7:0] $end
$var wire 8 + MemoryByte01 [7:0] $end
$var wire 8 , MemoryByte02 [7:0] $end
$var wire 8 - MemoryByte03 [7:0] $end
$var wire 8 . MemoryByte04 [7:0] $end
$var wire 8 / MemoryByte05 [7:0] $end
$var wire 8 0 MemoryByte06 [7:0] $end
$var wire 8 1 MemoryByte07 [7:0] $end
$var wire 8 2 MemoryByte08 [7:0] $end
$var wire 8 3 MemoryByte09 [7:0] $end
$var wire 8 4 MemoryByte0A [7:0] $end
$var wire 8 5 MemoryByte0B [7:0] $end
$var wire 8 6 MemoryByte0C [7:0] $end
$var wire 8 7 MemoryByte0D [7:0] $end
$var wire 8 8 MemoryByte0E [7:0] $end
$var wire 8 9 MemoryByte0F [7:0] $end
$var wire 1 : RESET $end
$var wire 8 ; RdDataByte [7:0] $end
$var wire 1 ! SCL $end
$var wire 1 " SDA $end
$var wire 1 < SDA_DriveEnable $end
$var wire 1 = TimingCheckEnable $end
$var wire 1 > WP $end
$var wire 8 ? WriteData_0 [7:0] $end
$var wire 8 @ WriteData_1 [7:0] $end
$var wire 8 A WriteData_2 [7:0] $end
$var wire 8 B WriteData_3 [7:0] $end
$var wire 8 C WriteData_4 [7:0] $end
$var wire 8 D WriteData_5 [7:0] $end
$var wire 8 E WriteData_6 [7:0] $end
$var wire 8 F WriteData_7 [7:0] $end
$var wire 1 G RdWrBit $end
$var parameter 32 H tBUF $end
$var parameter 32 I tHD_STA $end
$var parameter 32 J tHI $end
$var parameter 32 K tLO $end
$var parameter 32 L tSU_DAT $end
$var parameter 32 M tSU_STA $end
$var parameter 32 N tSU_STO $end
$var reg 1 O ADDR_Rcvd $end
$var reg 4 P BitCounter [3:0] $end
$var reg 1 Q CTRL_Rcvd $end
$var reg 8 R ControlByte [7:0] $end
$var reg 1 S MACK_Rcvd $end
$var reg 3 T PageAddress [2:0] $end
$var reg 1 U RdCycle $end
$var reg 8 V RdPointer [7:0] $end
$var reg 1 W SDA_DO $end
$var reg 1 X SDA_DriveEnableDlyd $end
$var reg 1 Y SDA_OE $end
$var reg 1 Z START_Rcvd $end
$var reg 1 [ STOP_Rcvd $end
$var reg 8 \ ShiftRegister [7:0] $end
$var reg 8 ] StartAddress [7:0] $end
$var reg 16 ^ WrCounter [15:0] $end
$var reg 1 _ WrCycle $end
$var reg 3 ` WrPointer [2:0] $end
$var reg 1 a WriteActive $end
$var integer 32 b LoopIndex [31:0] $end
$var integer 32 c tAA [31:0] $end
$var integer 32 d tWC [31:0] $end
$upscope $end
$scope module u_i2c_master_top $end
$var wire 1 % clk $end
$var wire 1 & rst_n $end
$var wire 1 ! scl $end
$var wire 1 " sda $end
$var wire 1 e sda_in_master $end
$var wire 1 f sda_out $end
$var wire 1 g sda_oen $end
$var wire 1 h scl_out $end
$var wire 1 i read_en $end
$var wire 8 j read_data [7:0] $end
$var wire 1 k flag_stop $end
$var wire 1 l flag_start $end
$var wire 1 m flag_restar $end
$var wire 1 n flag_nack $end
$var wire 1 o flag_ack $end
$var parameter 32 p CLK_PERIOD $end
$var parameter 32 q U_DLY $end
$var reg 1 r conti_receive $end
$var reg 1 s conti_write $end
$var reg 1 t i2c_begin $end
$var reg 1 u i2c_begin_finish $end
$var reg 1 v i2c_rw $end
$var reg 8 w i2c_slave_addr [7:0] $end
$var reg 1 x init_finish $end
$var reg 1 y sda_in $end
$var reg 8 z write_data [7:0] $end
$var reg 1 { write_en $end
$scope module u_i2c_master $end
$var wire 1 % clk $end
$var wire 1 r conti_receive $end
$var wire 1 s conti_write $end
$var wire 1 t i2c_begin $end
$var wire 1 | i2c_begin_sig $end
$var wire 1 v i2c_rw $end
$var wire 1 x init_finish $end
$var wire 1 & rst_n $end
$var wire 1 e sda_in $end
$var wire 8 } slave_addr [7:0] $end
$var wire 8 ~ write_data [7:0] $end
$var wire 1 { write_en $end
$var wire 1 !" sda_filter $end
$var wire 1 "" cnt_clk_reload $end
$var parameter 32 #" FILTER $end
$var parameter 32 $" FILTER_WIDTH $end
$var parameter 32 %" PRESCALER $end
$var parameter 4 &" STATE_ACK0 $end
$var parameter 4 '" STATE_ACK1 $end
$var parameter 4 (" STATE_ACK2 $end
$var parameter 4 )" STATE_ADDR $end
$var parameter 4 *" STATE_IDLE $end
$var parameter 4 +" STATE_NACK $end
$var parameter 4 ," STATE_RD_DAT $end
$var parameter 4 -" STATE_RESTART $end
$var parameter 4 ." STATE_START $end
$var parameter 4 /" STATE_STOP $end
$var parameter 4 0" STATE_WR_DAT $end
$var parameter 32 1" U_DLY $end
$var reg 8 2" cnt_clk [7:0] $end
$var reg 8 3" cnt_sda [7:0] $end
$var reg 8 4" curr_state [7:0] $end
$var reg 8 5" data_send [7:0] $end
$var reg 1 o flag_ack $end
$var reg 1 n flag_nack $end
$var reg 1 m flag_restar $end
$var reg 1 l flag_start $end
$var reg 1 k flag_stop $end
$var reg 4 6" i2c_begin_dly [3:0] $end
$var reg 8 7" next_state [7:0] $end
$var reg 8 8" read_data [7:0] $end
$var reg 1 i read_en $end
$var reg 8 9" scl_cnt [7:0] $end
$var reg 1 :" scl_dly $end
$var reg 1 ;" scl_neg $end
$var reg 1 h scl_out $end
$var reg 1 <" scl_pos $end
$var reg 1 g sda_oen $end
$var reg 1 f sda_out $end
$scope begin genblk1 $end
$var reg 1 =" sda_filter_reg $end
$var reg 2 >" sda_pipe [1:0] $end
$upscope $end
$upscope $end
$scope task generate_i2c_start $end
$var reg 16 ?" begin_time [15:0] $end
$upscope $end
$scope task i2c_eeprom_random_read $end
$var reg 8 @" addr [7:0] $end
$var reg 8 A" recv_data [7:0] $end
$var reg 8 B" word_addr_num [7:0] $end
$var reg 16 C" word_address [15:0] $end
$upscope $end
$scope task i2c_recv_bytes $end
$var reg 8 D" addr [7:0] $end
$var reg 8 E" num [7:0] $end
$var reg 8 F" recv_data [7:0] $end
$var integer 32 G" i [31:0] $end
$upscope $end
$scope task i2c_recv_one_byte $end
$var reg 8 H" addr [7:0] $end
$var reg 8 I" recv_data [7:0] $end
$upscope $end
$scope task i2c_send_bytes $end
$var reg 8 J" addr [7:0] $end
$var reg 64 K" bytes [63:0] $end
$var reg 8 L" num [7:0] $end
$var reg 64 M" temp_bytes [63:0] $end
$var integer 32 N" i [31:0] $end
$upscope $end
$scope task i2c_send_one_byte $end
$var reg 8 O" addr [7:0] $end
$var reg 8 P" byte [7:0] $end
$upscope $end
$scope task i2c_sim_rd $end
$var reg 8 Q" num [7:0] $end
$var reg 8 R" sim_rd [7:0] $end
$var integer 32 S" i [31:0] $end
$var integer 32 T" j [31:0] $end
$upscope $end
$scope task i2c_sim_wr $end
$var reg 64 U" bytes [63:0] $end
$var reg 8 V" data_send [7:0] $end
$var reg 8 W" num [7:0] $end
$var integer 32 X" i [31:0] $end
$var integer 32 Y" j [31:0] $end
$upscope $end
$upscope $end
$upscope $end
$upscope $end
$enddefinitions $end
$comment Show the parameter values. $end
$dumpall
b1 1"
b100 0"
b1001 /"
b1 ."
b1010 -"
b110 ,"
b1000 +"
b0 *"
b10 )"
b111 ("
b101 '"
b11 &"
b1 %"
b10 $"
b1 #"
b1 q
b1010011 p
b1001011000 N
b1001011000 M
b1100100 L
b10100010100 K
b1001011000 J
b1001011000 I
b10000010 H
b1 $
b1010011 #
$end
#0
$dumpvars
bx Y"
bx X"
bx W"
bx V"
bx U"
bx T"
bx S"
bx R"
bx Q"
bx P"
bx O"
bx N"
bx M"
bx L"
bx K"
bx J"
bx I"
bx H"
bx G"
bx F"
bx E"
bx D"
bx C"
bx B"
bx A"
bx @"
bx ?"
bx >"
x="
x<"
x;"
x:"
bx 9"
bx 8"
b0 7"
bx 6"
bx 5"
bx 4"
bx 3"
bx 2"
x""
x!"
b0 ~
b0 }
x|
0{
b0 z
0y
xx
b0 w
0v
0u
0t
0s
0r
xo
xn
xm
xl
xk
bx j
xi
xh
xg
xf
xe
b110010 d
b1110000100 c
bx b
0a
bx `
0_
bx ^
bx ]
bx \
0[
0Z
0Y
xX
0W
bx V
0U
bx T
0S
b0 R
0Q
b0 P
0O
0G
bx F
bx E
bx D
bx C
bx B
bx A
bx @
bx ?
0>
1=
0<
bx ;
0:
bx 9
bx 8
bx 7
bx 6
bx 5
bx 4
bx 3
bx 2
bx 1
bx 0
bx /
bx .
bx -
bx ,
bx +
b1011010 *
0)
0(
0'
1&
0%
x"
x!
$end
#4100
1%
#4200
b1 P
b0 4"
1!
1h
1f
1g
bx0 6"
0<"
0;"
0i
0n
0o
0l
0k
0m
#8200
0%
#12300
1%
#12400
0""
b0 j
b0 8"
1:"
b0 2"
bx00 6"
#16400
0%
#20500
1%
#20600
0|
bx000 6"
#24600
0%
#28700
0&
1%
#28800
b0 3"
b1 9"
b0 6"
b0 5"
1!"
1="
b11 >"
#32800
0%
#36900
1%
#41000
0%
#45100
1%
#49200
0%
#53300
1%
#57400
0%
#61500
1&
1%
#61600
b1x >"
#65600
0%
#69700
1%
#69800
bx >"
#73800
0%
#77900
1%
#82000
0%
#83000
1t
b10100110 ?"
b101100000001 M"
1s
b10 L"
b101100000001 K"
b10100000 J"
1x
#86100
1%
#86200
b1 6"
#90000
b1010 P
1[
1e
1"
0X
#90100
0[
#90200
0%
#94300
1%
#94400
b11 6"
bx1 >"
#98400
0%
#99600
1u
0t
#102500
1%
#102600
b1 7"
1|
b11 >"
b110 6"
#106600
0%
#110700
1%
#110800
0|
b10100000 w
b10100000 }
1l
b1100 6"
b1 4"
#114800
0%
#118900
1%
#119000
1""
b10100000 5"
b1000 6"
b1 2"
0l
#123000
0%
#127100
1%
#127200
0""
b11 9"
b0 2"
b0 6"
#131200
0%
#135300
1%
#135400
1""
b1 2"
#139400
0%
#143500
1%
#143600
0""
b111 9"
b0 2"
#147600
0%
#151700
1%
#151800
1""
b1 2"
#155800
0%
#159900
1%
#160000
0""
b1111 9"
b0 2"
#164000
0%
#168100
1%
#168200
1""
b1 2"
#172200
0%
#176300
1%
#176400
b0 P
1Z
0""
0e
0"
b11111 9"
b0 2"
0f
#180400
0%
#184500
1%
#184600
1""
b10 >"
b1 2"
#188600
0%
#192700
1%
#192800
0""
b111111 9"
b0 2"
b0 >"
#196800
0%
#200900
1%
#201000
1""
0!"
0="
b1 2"
#205000
0%
#209100
1%
#209200
0""
b1111111 9"
b0 2"
#213200
0%
#217300
1%
#217400
1""
b1 2"
#221400
0%
#225500
1%
#225600
0""
b11111111 9"
b0 2"
#229600
0%
#233700
1%
#233800
b10 7"
1""
b1 2"
#237800
0%
#241900
1%
#242000
0""
b0 2"
0!
0h
b10 4"
#246000
0%
#250100
1%
#250200
1""
b1 2"
0:"
1;"
#254200
0%
#258300
1%
#258400
1[
0Z
b1010 P
bx0 \
0""
1e
1"
0;"
b0 2"
b1000001 5"
1f
1!
1h
#258500
0[
#262400
0%
#266500
1%
#266600
1""
b1 >"
b1 2"
1:"
1<"
#270600
0%
#274700
1%
#274800
0""
b1 3"
0<"
b0 2"
0!
0h
b11 >"
#278800
0%
#282900
1%
#283000
1""
1!"
1="
b1 2"
0:"
1;"
#287000
0%
#291100
1%
#291200
b0 P
1Z
bx01 \
0""
0e
0"
0;"
b0 2"
b10000011 5"
0f
1!
1h
#295200
0%
#299300
1%
#299400
1""
b10 >"
b1 2"
1:"
1<"
#303400
0%
#307500
1%
#307600
0""
b10 3"
0<"
b0 2"
0!
0h
b0 >"
#311600
0%
#315700
1%
#315800
1""
0!"
0="
b1 2"
0:"
1;"
#319800
0%
#323900
1%
#324000
1[
0Z
b1010 P
bx010 \
0""
1e
1"
0;"
b0 2"
b111 5"
1f
1!
1h
#324100
0[
#328000
0%
#332100
1%
#332200
1""
b1 >"
b1 2"
1:"
1<"
#336200
0%
#340300
1%
#340400
0""
b11 3"
0<"
b0 2"
0!
0h
b11 >"
#344400
0%
#348500
1%
#348600
1""
1!"
1="
b1 2"
0:"
1;"
#352600
0%
#356700
1%
#356800
b0 P
1Z
bx0101 \
0""
0e
0"
0;"
b0 2"
b1111 5"
0f
1!
1h
#360800
0%
#364900
1%
#365000
1""
b10 >"
b1 2"
1:"
1<"
#369000
0%
#373100
1%
#373200
0""
b100 3"
0<"
b0 2"
0!
0h
b0 >"
#377200
0%
#381300
1%
#381400
1""
0!"
0="
b1 2"
0:"
1;"
#385400
0%
#389500
1%
#389600
b1 P
bx01010 \
0""
0;"
b0 2"
b11111 5"
1!
1h
#393600
0%
#397700
1%
#397800
1""
b1 2"
1:"
1<"
#401800
0%
#405900
1%
#406000
0""
b101 3"
0<"
b0 2"
0!
0h
#410000
0%
#414100
1%
#414200
1""
b1 2"
0:"
1;"
#418200
0%
#422300
1%
#422400
bx010100 \
b10 P
0""
0;"
b0 2"
b111111 5"
1!
1h
#426400
0%
#430500
1%
#430600
1""
b1 2"
1:"
1<"
#434600
0%
#438700
1%
#438800
0""
b110 3"
0<"
b0 2"
0!
0h
#442800
0%
#446900
1%
#447000
1""
b1 2"
0:"
1;"
#451000
0%
#455100
1%
#455200
b11 P
bx0101000 \
0""
0;"
b0 2"
b1111111 5"
1!
1h
#459200
0%
#463300
1%
#463400
1""
b1 2"
1:"
1<"
#467400
0%
#471500
1%
#471600
0""
b111 3"
0<"
b0 2"
0!
0h
#475600
0%
#479700
1%
#479800
1""
b1 2"
0:"
1;"
#483800
0%
#487900
1%
#488000
b1010000 \
b100 P
0""
0;"
b0 2"
b11111111 5"
1!
1h
#492000
0%
#496100
1%
#496200
1""
b1 2"
1:"
1<"
#500200
0%
#504300
1%
#504400
0""
b1000 3"
0<"
b0 2"
0!
0h
#508400
0%
#512500
1%
#512600
1""
b11 7"
b1 2"
0:"
1;"
#516600
0%
#520700
1%
#520800
b1011 K"
b1 z
b1 ~
b101 P
b10100000 \
b0 N"
0""
1o
0;"
b0 2"
1!
1h
b11 4"
#524800
0%
#528900
1%
#529000
1""
b100 7"
0g
b1 2"
1:"
1<"
0o
1{
#533000
0%
#537100
1%
#537200
0""
b0 3"
0<"
b0 2"
b1 5"
0!
0h
b100 4"
0{
#541200
0%
#545300
1%
#545400
1""
1g
b1 2"
0:"
1;"
#549400
0%
#553500
1%
#553600
b1000000 \
b110 P
0""
0;"
b0 2"
b11 5"
1!
1h
#557600
0%
#561700
1%
#561800
1""
b1 2"
1:"
1<"
#565800
0%
#569900
1%
#570000
0""
b1 3"
0<"
b0 2"
0!
0h
#574000
0%
#578100
1%
#578200
1""
b1 2"
0:"
1;"
#582200
0%
#586300
1%
#586400
b111 P
b10000000 \
0""
0;"
b0 2"
b111 5"
1!
1h
#590400
0%
#594500
1%
#594600
1""
b1 2"
1:"
1<"
#598600
0%
#602700
1%
#602800
0""
b10 3"
0<"
b0 2"
0!
0h
#606800
0%
#610900
1%
#611000
1""
b1 2"
0:"
1;"
#615000
0%
#619100
1%
#619200
b0 \
b1000 P
0""
0;"
b0 2"
b1111 5"
1!
1h
#623200
0%
#627300
1%
#627400
1""
b1 2"
1:"
1<"
#631400
0%
#635500
1%
#635600
0Z
0""
b11 3"
0<"
b0 2"
0!
0h
#639600
0%
#643700
1%
#643800
1""
b1 2"
0:"
1;"
#647800
0%
#651900
1%
#652000
b1001 P
0""
0;"
b0 2"
b11111 5"
1!
1h
#656000
0%
#660100
1%
#660200
1""
b1 2"
1:"
1<"
#664200
0%
#668300
1%
#668400
b0 P
0""
b100 3"
0<"
b0 2"
0!
0h
#672400
0%
#676500
1%
#676600
1""
b1 2"
0:"
1;"
#680600
0%
#684700
1%
#684800
b1 P
0""
0;"
b0 2"
b111111 5"
1!
1h
#688800
0%
#692900
1%
#693000
1""
b1 2"
1:"
1<"
#697000
0%
#701100
1%
#701200
0""
b101 3"
0<"
b0 2"
0!
0h
#705200
0%
#709300
1%
#709400
1""
b1 2"
0:"
1;"
#713400
0%
#717500
1%
#717600
b10 P
0""
0;"
b0 2"
b1111111 5"
1!
1h
#721600
0%
#725700
1%
#725800
1""
b1 2"
1:"
1<"
#729800
0%
#733900
1%
#734000
0""
b110 3"
0<"
b0 2"
0!
0h
#738000
0%
#742100
1%
#742200
1""
b1 2"
0:"
1;"
#746200
0%
#750300
1%
#750400
b11 P
0""
0;"
b0 2"
b11111111 5"
1!
1h
#754400
0%
#758500
1%
#758600
1""
b1 2"
1:"
1<"
#762600
0%
#766700
1%
#766800
0""
b111 3"
0<"
b0 2"
0!
0h
#770800
0%
#774900
1%
#775000
1""
b1 2"
0:"
1;"
#779000
0%
#783100
1%
#783200
1[
b1010 P
0""
1e
1"
0;"
b0 2"
1f
1!
1h
#783300
0[
#787200
0%
#791300
1%
#791400
1""
b1 >"
b1 2"
1:"
1<"
#795400
0%
#799500
1%
#799600
0""
b1000 3"
0<"
b0 2"
0!
0h
b11 >"
#803600
0%
#807700
1%
#807800
1""
b101 7"
1!"
1="
b1 2"
0:"
1;"
#811800
0%
#815900
1%
#816000
b0 K"
b1011 z
b1011 ~
b1 \
b1 N"
0""
1o
0;"
b0 2"
1!
1h
b101 4"
#820000
0%
#824100
1%
#824200
b0 P
1Z
0e
0"
1""
b1001 7"
0f
0g
b1 2"
1:"
1<"
0o
1{
#828200
0%
#832300
1%
#832400
0""
b1001 7"
b0 3"
0<"
b0 2"
b1011 5"
0!
0h
b1001 4"
b10 >"
0s
0{
#836400
0%
#840500
1%
#840600
b1 P
b10 \
b0 7"
1""
b0 >"
1!
1h
1g
b1 2"
0:"
1;"
#844600
0%
#848700
1%
#848800
0""
1k
0;"
1<"
1:"
b0 2"
b0 4"
0!"
0="
#852800
0%
#856900
1%
#857000
b1010 P
1[
0Z
1e
1"
1f
0<"
0k
#857100
0[
#861000
0%
#865100
1%
#865200
b1 >"
#869200
0%
#873300
1%
#873400
b11 >"
#877400
0%
#881500
1%
#881600
1!"
1="
