build/i2c_master_tb_20220828_003844.vcd
$date
	Sun Aug 28 00:38:44 2022
$end
$version
	Icarus Verilog
$end
$timescale
	1ns
$end
$scope module i2c_master_tb $end
$var wire 1 ! sda_out $end
$var wire 1 " scl_out $end
$var wire 1 # read_en $end
$var wire 8 $ read_data [7:0] $end
$var wire 1 % flag_stop $end
$var wire 1 & flag_start $end
$var wire 1 ' flag_restar $end
$var wire 1 ( flag_nack $end
$var wire 1 ) flag_ack $end
$var parameter 32 * CLK_PERIOD $end
$var parameter 32 + U_DLY $end
$var reg 1 , clk $end
$var reg 1 - conti_receive $end
$var reg 1 . conti_write $end
$var reg 1 / i2c_begin $end
$var reg 1 0 i2c_begin_finish $end
$var reg 1 1 i2c_rw $end
$var reg 8 2 i2c_slave_addr [7:0] $end
$var reg 1 3 init_finish $end
$var reg 1 4 rst_n $end
$var reg 1 5 sda_in $end
$var reg 8 6 write_data [7:0] $end
$var reg 1 7 write_en $end
$scope module u_i2c_master $end
$var wire 1 , clk $end
$var wire 1 - conti_receive $end
$var wire 1 . conti_write $end
$var wire 1 / i2c_begin $end
$var wire 1 8 i2c_begin_sig $end
$var wire 1 1 i2c_rw $end
$var wire 1 3 init_finish $end
$var wire 1 4 rst_n $end
$var wire 1 9 scl_in $end
$var wire 1 5 sda_in $end
$var wire 8 : slave_addr [7:0] $end
$var wire 8 ; write_data [7:0] $end
$var wire 1 7 write_en $end
$var wire 1 < sda_filter $end
$var wire 1 = cnt_clk_reload $end
$var parameter 32 > FILTER $end
$var parameter 32 ? FILTER_WIDTH $end
$var parameter 32 @ PRESCALER $end
$var parameter 4 A STATE_ACK0 $end
$var parameter 4 B STATE_ACK1 $end
$var parameter 4 C STATE_ACK2 $end
$var parameter 4 D STATE_ADDR $end
$var parameter 4 E STATE_IDLE $end
$var parameter 4 F STATE_NACK $end
$var parameter 4 G STATE_RD_DAT $end
$var parameter 4 H STATE_RESTART $end
$var parameter 4 I STATE_START $end
$var parameter 4 J STATE_STOP $end
$var parameter 4 K STATE_WR_DAT $end
$var parameter 32 L U_DLY $end
$var reg 8 M cnt_clk [7:0] $end
$var reg 8 N cnt_sda [7:0] $end
$var reg 8 O curr_state [7:0] $end
$var reg 8 P data_send [7:0] $end
$var reg 1 ) flag_ack $end
$var reg 1 ( flag_nack $end
$var reg 1 ' flag_restar $end
$var reg 1 & flag_start $end
$var reg 1 % flag_stop $end
$var reg 4 Q i2c_begin_dly [3:0] $end
$var reg 8 R next_state [7:0] $end
$var reg 8 S read_data [7:0] $end
$var reg 1 # read_en $end
$var reg 4 T scl_cnt [3:0] $end
$var reg 1 U scl_dly $end
$var reg 1 V scl_neg $end
$var reg 1 " scl_out $end
$var reg 1 W scl_pos $end
$var reg 1 ! sda_out $end
$scope begin genblk1 $end
$var reg 4 X sda_filter_cnt [3:0] $end
$var reg 1 Y sda_filter_reg $end
$upscope $end
$upscope $end
$scope task generate_i2c_start $end
$var reg 16 Z begin_time [15:0] $end
$upscope $end
$scope task i2c_eeprom_random_read $end
$var reg 8 [ addr [7:0] $end
$var reg 8 \ recv_data [7:0] $end
$var reg 16 ] word_address [15:0] $end
$upscope $end
$scope task i2c_recv_bytes $end
$var reg 8 ^ addr [7:0] $end
$var reg 8 _ num [7:0] $end
$var reg 8 ` recv_data [7:0] $end
$var integer 32 a i [31:0] $end
$upscope $end
$scope task i2c_recv_one_byte $end
$var reg 8 b addr [7:0] $end
$var reg 8 c recv_data [7:0] $end
$upscope $end
$scope task i2c_send_bytes $end
$var reg 8 d addr [7:0] $end
$var reg 64 e bytes [63:0] $end
$var reg 8 f num [7:0] $end
$var reg 64 g temp_bytes [63:0] $end
$var integer 32 h i [31:0] $end
$upscope $end
$scope task i2c_send_one_byte $end
$var reg 8 i addr [7:0] $end
$var reg 8 j byte [7:0] $end
$upscope $end
$scope task i2c_sim_rd $end
$var reg 8 k num [7:0] $end
$var reg 8 l sim_rd [7:0] $end
$var integer 32 m i [31:0] $end
$var integer 32 n j [31:0] $end
$upscope $end
$scope task i2c_sim_wr $end
$var reg 64 o bytes [63:0] $end
$var reg 8 p data_send [7:0] $end
$var reg 8 q num [7:0] $end
$var integer 32 r i [31:0] $end
$var integer 32 s j [31:0] $end
$upscope $end
$upscope $end
$enddefinitions $end
$comment Show the parameter values. $end
$dumpall
b1 L
b100 K
b1001 J
b1 I
b1010 H
b110 G
b1000 F
b0 E
b10 D
b111 C
b101 B
b11 A
b11 @
b10 ?
b1 >
b1 +
b1010011 *
$end
#0
$dumpvars
bx s
bx r
bx q
bx p
bx o
bx n
bx m
bx l
bx k
bx j
bx i
bx h
bx g
bx f
bx e
bx d
bx c
bx b
bx a
bx `
bx _
bx ^
bx ]
bx \
bx [
bx Z
xY
bx X
xW
xV
xU
bx T
bx S
b0 R
bx Q
bx P
bx O
bx N
bx M
x=
x<
b0 ;
b0 :
z9
x8
07
b0 6
05
14
x3
b0 2
01
00
0/
0.
0-
0,
x)
x(
x'
x&
x%
bx $
x#
x"
x!
$end
#41
1,
#42
bx0 X
1<
1Y
b0 O
1"
1!
bx0 Q
0W
0V
0#
0(
0)
0&
0%
0'
#82
0,
#123
1,
#124
0=
b0 $
b0 S
1U
b0 M
bx00 Q
bx00 X
#164
0,
#166
04
#167
08
b0 X
b0 P
b0 Q
b1 T
b0 N
#205
1,
#207
14
#246
0,
#287
1,
#288
0<
0Y
#328
0,
#369
1,
#410
0,
#451
1,
#492
0,
#533
1,
#574
0,
#615
1,
#656
0,
#697
1,
#738
0,
#779
1,
#820
0,
#830
1/
b10100110 Z
1.
b1001000110100 ]
b10100000 [
13
#861
1,
#862
b1 Q
#902
0,
#943
1,
#944
b11 Q
#984
0,
#996
10
0/
#1025
1,
#1026
b1 R
18
b110 Q
#1066
0,
#1107
1,
#1108
08
b10100000 2
b10100000 :
b1 O
b1100 Q
1&
#1148
0,
#1189
1,
#1190
0&
b1 M
b1000 Q
b10100000 P
#1230
0,
#1271
1,
#1272
b0 Q
b10 M
#1312
0,
#1353
1,
#1354
1=
b11 M
#1394
0,
#1435
1,
#1436
0=
b0 M
b11 T
#1476
0,
#1517
1,
#1518
b1 M
#1558
0,
#1599
1,
#1600
b10 M
#1640
0,
#1681
1,
#1682
1=
b11 M
#1722
0,
#1763
1,
#1764
0=
0!
b0 M
b111 T
#1804
0,
#1845
1,
#1846
b1 M
#1886
0,
#1927
1,
#1928
b10 M
#1968
0,
#2009
1,
#2010
1=
b11 M
#2050
0,
#2091
1,
#2092
0=
b1 R
b0 M
b1111 T
#2132
0,
#2173
1,
#2174
b1 M
#2214
0,
#2255
1,
#2256
b10 M
#2296
0,
#2337
1,
#2338
b10 R
1=
b11 M
#2378
0,
#2419
1,
#2420
0=
b10 O
0"
b0 M
b1 T
#2460
0,
#2501
1,
#2502
1V
0U
b1 M
#2542
0,
#2583
1,
#2584
b1000001 P
1!
b10 M
0V
#2624
0,
#2665
1,
#2666
1=
b11 M
#2706
0,
#2747
1,
#2748
0=
b0 M
b11 T
#2788
0,
#2829
1,
#2830
b1 M
#2870
0,
#2911
1,
#2912
b10 M
#2952
0,
#2993
1,
#2994
1=
b11 M
#3034
0,
#3075
1,
#3076
0=
b0 M
b111 T
#3116
0,
#3157
1,
#3158
b1 M
#3198
0,
#3239
1,
#3240
b10 M
#3280
0,
#3321
1,
#3322
1=
b11 M
#3362
0,
#3403
1,
#3404
0=
b0 M
b1111 T
#3444
0,
#3485
1,
#3486
b1 M
#3526
0,
#3567
1,
#3568
b10 M
#3608
0,
#3649
1,
#3650
1=
b11 M
#3690
0,
#3731
1,
#3732
0=
1"
b0 M
b1 T
#3772
0,
#3813
1,
#3814
1W
1U
b1 M
#3854
0,
#3895
1,
#3896
b10 M
0W
b1 N
#3936
0,
#3977
1,
#3978
1=
b11 M
#4018
0,
#4059
1,
#4060
0=
b0 M
b11 T
#4100
0,
#4141
1,
#4142
b1 M
#4182
0,
#4223
1,
#4224
b10 M
#4264
0,
#4305
1,
#4306
1=
b11 M
#4346
0,
#4387
1,
#4388
0=
b0 M
b111 T
#4428
0,
#4469
1,
#4470
b1 M
#4510
0,
#4551
1,
#4552
b10 M
#4592
0,
#4633
1,
#4634
1=
b11 M
#4674
0,
#4715
1,
#4716
0=
b0 M
b1111 T
#4756
0,
#4797
1,
#4798
b1 M
#4838
0,
#4879
1,
#4880
b10 M
#4920
0,
#4961
1,
#4962
1=
b11 M
#5002
0,
#5043
1,
#5044
0=
0"
b0 M
b1 T
#5084
0,
#5125
1,
#5126
1V
0U
b1 M
#5166
0,
#5207
1,
#5208
b10000011 P
0!
b10 M
0V
#5248
0,
#5289
1,
#5290
1=
b11 M
#5330
0,
#5371
1,
#5372
0=
b0 M
b11 T
#5412
0,
#5453
1,
#5454
b1 M
#5494
0,
#5535
1,
#5536
b10 M
#5576
0,
#5617
1,
#5618
1=
b11 M
#5658
0,
#5699
1,
#5700
0=
b0 M
b111 T
#5740
0,
#5781
1,
#5782
b1 M
#5822
0,
#5863
1,
#5864
b10 M
#5904
0,
#5945
1,
#5946
1=
b11 M
#5986
0,
#6027
1,
#6028
0=
b0 M
b1111 T
#6068
0,
#6109
1,
#6110
b1 M
#6150
0,
#6191
1,
#6192
b10 M
#6232
0,
#6273
1,
#6274
1=
b11 M
#6314
0,
#6355
1,
#6356
0=
1"
b0 M
b1 T
#6396
0,
#6437
1,
#6438
1W
1U
b1 M
#6478
0,
#6519
1,
#6520
b10 M
0W
b10 N
#6560
0,
#6601
1,
#6602
1=
b11 M
#6642
0,
#6683
1,
#6684
0=
b0 M
b11 T
#6724
0,
#6765
1,
#6766
b1 M
#6806
0,
#6847
1,
#6848
b10 M
#6888
0,
#6929
1,
#6930
1=
b11 M
#6970
0,
#7011
1,
#7012
0=
b0 M
b111 T
#7052
0,
#7093
1,
#7094
b1 M
#7134
0,
#7175
1,
#7176
b10 M
#7216
0,
#7257
1,
#7258
1=
b11 M
#7298
0,
#7339
1,
#7340
0=
b0 M
b1111 T
#7380
0,
#7421
1,
#7422
b1 M
#7462
0,
#7503
1,
#7504
b10 M
#7544
0,
#7585
1,
#7586
1=
b11 M
#7626
0,
#7667
1,
#7668
0=
0"
b0 M
b1 T
#7708
0,
#7749
1,
#7750
1V
0U
b1 M
#7790
0,
#7831
1,
#7832
b111 P
1!
b10 M
0V
#7872
0,
#7913
1,
#7914
1=
b11 M
#7954
0,
#7995
1,
#7996
0=
b0 M
b11 T
#8036
0,
#8077
1,
#8078
b1 M
#8118
0,
#8159
1,
#8160
b10 M
#8200
0,
#8241
1,
#8242
1=
b11 M
#8282
0,
#8323
1,
#8324
0=
b0 M
b111 T
#8364
0,
#8405
1,
#8406
b1 M
#8446
0,
#8487
1,
#8488
b10 M
#8528
0,
#8569
1,
#8570
1=
b11 M
#8610
0,
#8651
1,
#8652
0=
b0 M
b1111 T
#8692
0,
#8733
1,
#8734
b1 M
#8774
0,
#8815
1,
#8816
b10 M
#8856
0,
#8897
1,
#8898
1=
b11 M
#8938
0,
#8979
1,
#8980
0=
1"
b0 M
b1 T
#9020
0,
#9061
1,
#9062
1W
1U
b1 M
#9102
0,
#9143
1,
#9144
b10 M
0W
b11 N
#9184
0,
#9225
1,
#9226
1=
b11 M
#9266
0,
#9307
1,
#9308
0=
b0 M
b11 T
#9348
0,
#9389
1,
#9390
b1 M
#9430
0,
#9471
1,
#9472
b10 M
#9512
0,
#9553
1,
#9554
1=
b11 M
#9594
0,
#9635
1,
#9636
0=
b0 M
b111 T
#9676
0,
#9717
1,
#9718
b1 M
#9758
0,
#9799
1,
#9800
b10 M
#9840
0,
#9881
1,
#9882
1=
b11 M
#9922
0,
#9963
1,
#9964
0=
b0 M
b1111 T
#10004
0,
#10045
1,
#10046
b1 M
#10086
0,
#10127
1,
#10128
b10 M
#10168
0,
#10209
1,
#10210
1=
b11 M
#10250
0,
#10291
1,
#10292
0=
0"
b0 M
b1 T
#10332
0,
#10373
1,
#10374
1V
0U
b1 M
#10414
0,
#10455
1,
#10456
b1111 P
0!
b10 M
0V
#10496
0,
#10537
1,
#10538
1=
b11 M
#10578
0,
#10619
1,
#10620
0=
b0 M
b11 T
#10660
0,
#10701
1,
#10702
b1 M
#10742
0,
#10783
1,
#10784
b10 M
#10824
0,
#10865
1,
#10866
1=
b11 M
#10906
0,
#10947
1,
#10948
0=
b0 M
b111 T
#10988
0,
#11029
1,
#11030
b1 M
#11070
0,
#11111
1,
#11112
b10 M
#11152
0,
#11193
1,
#11194
1=
b11 M
#11234
0,
#11275
1,
#11276
0=
b0 M
b1111 T
#11316
0,
#11357
1,
#11358
b1 M
#11398
0,
#11439
1,
#11440
b10 M
#11480
0,
#11521
1,
#11522
1=
b11 M
#11562
0,
#11603
1,
#11604
0=
1"
b0 M
b1 T
#11644
0,
#11685
1,
#11686
1W
1U
b1 M
#11726
0,
#11767
1,
#11768
b10 M
0W
b100 N
#11808
0,
#11849
1,
#11850
1=
b11 M
#11890
0,
#11931
1,
#11932
0=
b0 M
b11 T
#11972
0,
#12013
1,
#12014
b1 M
#12054
0,
#12095
1,
#12096
b10 M
#12136
0,
#12177
1,
#12178
1=
b11 M
#12218
0,
#12259
1,
#12260
0=
b0 M
b111 T
#12300
0,
#12341
1,
#12342
b1 M
#12382
0,
#12423
1,
#12424
b10 M
#12464
0,
#12505
1,
#12506
1=
b11 M
#12546
0,
#12587
1,
#12588
0=
b0 M
b1111 T
#12628
0,
#12669
1,
#12670
b1 M
#12710
0,
#12751
1,
#12752
b10 M
#12792
0,
#12833
1,
#12834
1=
b11 M
#12874
0,
#12915
1,
#12916
0=
0"
b0 M
b1 T
#12956
0,
#12997
1,
#12998
1V
0U
b1 M
#13038
0,
#13079
1,
#13080
b11111 P
b10 M
0V
#13120
0,
#13161
1,
#13162
1=
b11 M
#13202
0,
#13243
1,
#13244
0=
b0 M
b11 T
#13284
0,
#13325
1,
#13326
b1 M
#13366
0,
#13407
1,
#13408
b10 M
#13448
0,
#13489
1,
#13490
1=
b11 M
#13530
0,
#13571
1,
#13572
0=
b0 M
b111 T
#13612
0,
#13653
1,
#13654
b1 M
#13694
0,
#13735
1,
#13736
b10 M
#13776
0,
#13817
1,
#13818
1=
b11 M
#13858
0,
#13899
1,
#13900
0=
b0 M
b1111 T
#13940
0,
#13981
1,
#13982
b1 M
#14022
0,
#14063
1,
#14064
b10 M
#14104
0,
#14145
1,
#14146
1=
b11 M
#14186
0,
#14227
1,
#14228
0=
1"
b0 M
b1 T
#14268
0,
#14309
1,
#14310
1W
1U
b1 M
#14350
0,
#14391
1,
#14392
b10 M
0W
b101 N
#14432
0,
#14473
1,
#14474
1=
b11 M
#14514
0,
#14555
1,
#14556
0=
b0 M
b11 T
#14596
0,
#14637
1,
#14638
b1 M
#14678
0,
#14719
1,
#14720
b10 M
#14760
0,
#14801
1,
#14802
1=
b11 M
#14842
0,
#14883
1,
#14884
0=
b0 M
b111 T
#14924
0,
#14965
1,
#14966
b1 M
#15006
0,
#15047
1,
#15048
b10 M
#15088
0,
#15129
1,
#15130
1=
b11 M
#15170
0,
#15211
1,
#15212
0=
b0 M
b1111 T
#15252
0,
#15293
1,
#15294
b1 M
#15334
0,
#15375
1,
#15376
b10 M
#15416
0,
#15457
1,
#15458
1=
b11 M
#15498
0,
#15539
1,
#15540
0=
0"
b0 M
b1 T
#15580
0,
#15621
1,
#15622
1V
0U
b1 M
#15662
0,
#15703
1,
#15704
b111111 P
b10 M
0V
#15744
0,
#15785
1,
#15786
1=
b11 M
#15826
0,
#15867
1,
#15868
0=
b0 M
b11 T
#15908
0,
#15949
1,
#15950
b1 M
#15990
0,
#16031
1,
#16032
b10 M
#16072
0,
#16113
1,
#16114
1=
b11 M
#16154
0,
#16195
1,
#16196
0=
b0 M
b111 T
#16236
0,
#16277
1,
#16278
b1 M
#16318
0,
#16359
1,
#16360
b10 M
#16400
0,
#16441
1,
#16442
1=
b11 M
#16482
0,
#16523
1,
#16524
0=
b0 M
b1111 T
#16564
0,
#16605
1,
#16606
b1 M
#16646
0,
#16687
1,
#16688
b10 M
#16728
0,
#16769
1,
#16770
1=
b11 M
#16810
0,
#16851
1,
#16852
0=
1"
b0 M
b1 T
#16892
0,
#16933
1,
#16934
1W
1U
b1 M
#16974
0,
#17015
1,
#17016
b10 M
0W
b110 N
#17056
0,
#17097
1,
#17098
1=
b11 M
#17138
0,
#17179
1,
#17180
0=
b0 M
b11 T
#17220
0,
#17261
1,
#17262
b1 M
#17302
0,
#17343
1,
#17344
b10 M
#17384
0,
#17425
1,
#17426
1=
b11 M
#17466
0,
#17507
1,
#17508
0=
b0 M
b111 T
#17548
0,
#17589
1,
#17590
b1 M
#17630
0,
#17671
1,
#17672
b10 M
#17712
0,
#17753
1,
#17754
1=
b11 M
#17794
0,
#17835
1,
#17836
0=
b0 M
b1111 T
#17876
0,
#17917
1,
#17918
b1 M
#17958
0,
#17999
1,
#18000
b10 M
#18040
0,
#18081
1,
#18082
1=
b11 M
#18122
0,
#18163
1,
#18164
0=
0"
b0 M
b1 T
#18204
0,
#18245
1,
#18246
1V
0U
b1 M
#18286
0,
#18327
1,
#18328
b1111111 P
b10 M
0V
#18368
0,
#18409
1,
#18410
1=
b11 M
#18450
0,
#18491
1,
#18492
0=
b0 M
b11 T
#18532
0,
#18573
1,
#18574
b1 M
#18614
0,
#18655
1,
#18656
b10 M
#18696
0,
#18737
1,
#18738
1=
b11 M
#18778
0,
#18819
1,
#18820
0=
b0 M
b111 T
#18860
0,
#18901
1,
#18902
b1 M
#18942
0,
#18983
1,
#18984
b10 M
#19024
0,
#19065
1,
#19066
1=
b11 M
#19106
0,
#19147
1,
#19148
0=
b0 M
b1111 T
#19188
0,
#19229
1,
#19230
b1 M
#19270
0,
#19311
1,
#19312
b10 M
#19352
0,
#19393
1,
#19394
1=
b11 M
#19434
0,
#19475
1,
#19476
0=
1"
b0 M
b1 T
#19516
0,
#19557
1,
#19558
1W
1U
b1 M
#19598
0,
#19639
1,
#19640
b10 M
0W
b111 N
#19680
0,
#19721
1,
#19722
1=
b11 M
#19762
0,
#19803
1,
#19804
0=
b0 M
b11 T
#19844
0,
#19885
1,
#19886
b1 M
#19926
0,
#19967
1,
#19968
b10 M
#20008
0,
#20049
1,
#20050
1=
b11 M
#20090
0,
#20131
1,
#20132
0=
b0 M
b111 T
#20172
0,
#20213
1,
#20214
b1 M
#20254
0,
#20295
1,
#20296
b10 M
#20336
0,
#20377
1,
#20378
1=
b11 M
#20418
0,
#20459
1,
#20460
0=
b0 M
b1111 T
#20500
0,
#20541
1,
#20542
b1 M
#20582
0,
#20623
1,
#20624
b10 M
#20664
0,
#20705
1,
#20706
1=
b11 M
#20746
0,
#20787
1,
#20788
0=
0"
b0 M
b1 T
#20828
0,
#20869
1,
#20870
1V
0U
b1 M
#20910
0,
#20951
1,
#20952
b11111111 P
b10 M
0V
#20992
0,
#21033
1,
#21034
1=
b11 M
#21074
0,
#21115
1,
#21116
0=
b0 M
b11 T
#21156
0,
#21197
1,
#21198
b1 M
#21238
0,
#21279
1,
#21280
b10 M
#21320
0,
#21361
1,
#21362
1=
b11 M
#21402
0,
#21443
1,
#21444
0=
b0 M
b111 T
#21484
0,
#21525
1,
#21526
b1 M
#21566
0,
#21607
1,
#21608
b10 M
#21648
0,
#21689
1,
#21690
1=
b11 M
#21730
0,
#21771
1,
#21772
0=
b0 M
b1111 T
#21812
0,
#21853
1,
#21854
b1 M
#21894
0,
#21935
1,
#21936
b10 M
#21976
0,
#22017
1,
#22018
1=
b11 M
#22058
0,
#22099
1,
#22100
0=
1"
b0 M
b1 T
#22140
0,
#22181
1,
#22182
1W
1U
b1 M
#22222
0,
#22263
1,
#22264
b10 M
0W
b1000 N
#22304
0,
#22345
1,
#22346
1=
b11 M
#22386
0,
#22427
1,
#22428
0=
b0 M
b11 T
#22468
0,
#22509
1,
#22510
b1 M
#22550
0,
#22591
1,
#22592
b10 M
#22632
0,
#22673
1,
#22674
1=
b11 M
#22714
0,
#22755
1,
#22756
0=
b0 M
b111 T
#22796
0,
#22837
1,
#22838
b1 M
#22878
0,
#22919
1,
#22920
b10 M
#22960
0,
#23001
1,
#23002
1=
b11 M
#23042
0,
#23083
1,
#23084
0=
b0 M
b1111 T
#23124
0,
#23165
1,
#23166
b1 M
#23206
0,
#23247
1,
#23248
b10 M
#23288
0,
#23329
1,
#23330
1=
b11 M
#23370
0,
#23411
1,
#23412
0=
0"
b0 M
b1 T
#23452
0,
#23493
1,
#23494
b11 R
1V
0U
b1 M
#23534
0,
#23575
1,
#23576
b10010 6
b10010 ;
b11 O
1!
b10 M
0V
1)
#23616
0,
#23657
1,
#23658
1=
0)
b11 M
17
#23698
0,
#23739
1,
#23740
0=
b10010 P
b0 M
b11 T
07
#23780
0,
#23821
1,
#23822
b1 M
#23862
0,
#23903
1,
#23904
b10 M
#23944
0,
#23985
1,
#23986
1=
b11 M
#24026
0,
#24067
1,
#24068
0=
b0 M
b111 T
#24108
0,
#24149
1,
#24150
b1 M
#24190
0,
#24231
1,
#24232
b10 M
#24272
0,
#24313
1,
#24314
1=
b11 M
#24354
0,
#24395
1,
#24396
0=
b0 M
b1111 T
#24436
0,
#24477
1,
#24478
b1 M
#24518
0,
#24559
1,
#24560
b10 M
#24600
0,
#24641
1,
#24642
1=
b11 M
#24682
0,
#24723
1,
#24724
0=
1"
b0 M
b1 T
#24764
0,
#24805
1,
#24806
b100 R
1W
1U
b1 M
#24846
0,
#24887
1,
#24888
b100 O
b10 M
0W
b0 N
#24928
0,
#24969
1,
#24970
1=
b11 M
#25010
0,
#25051
1,
#25052
0=
b0 M
b11 T
#25092
0,
#25133
1,
#25134
b1 M
#25174
0,
#25215
1,
#25216
b10 M
#25256
0,
#25297
1,
#25298
1=
b11 M
#25338
0,
#25379
1,
#25380
0=
b0 M
b111 T
#25420
0,
#25461
1,
#25462
b1 M
#25502
0,
#25543
1,
#25544
b10 M
#25584
0,
#25625
1,
#25626
1=
b11 M
#25666
0,
#25707
1,
#25708
0=
b0 M
b1111 T
#25748
0,
#25789
1,
#25790
b1 M
#25830
0,
#25871
1,
#25872
b10 M
#25912
0,
#25953
1,
#25954
1=
b11 M
#25994
0,
#26035
1,
#26036
0=
0"
b0 M
b1 T
#26076
0,
#26117
1,
#26118
1V
0U
b1 M
#26158
0,
#26199
1,
#26200
b100101 P
0!
b10 M
0V
#26240
0,
#26281
1,
#26282
1=
b11 M
#26322
0,
#26363
1,
#26364
0=
b0 M
b11 T
#26404
0,
#26445
1,
#26446
b1 M
#26486
0,
#26527
1,
#26528
b10 M
#26568
0,
#26609
1,
#26610
1=
b11 M
#26650
0,
#26691
1,
#26692
0=
b0 M
b111 T
#26732
0,
#26773
1,
#26774
b1 M
#26814
0,
#26855
1,
#26856
b10 M
#26896
0,
#26937
1,
#26938
1=
b11 M
#26978
0,
#27019
1,
#27020
0=
b0 M
b1111 T
#27060
0,
#27101
1,
#27102
b1 M
#27142
0,
#27183
1,
#27184
b10 M
#27224
0,
#27265
1,
#27266
1=
b11 M
#27306
0,
#27347
1,
#27348
0=
1"
b0 M
b1 T
#27388
0,
#27429
1,
#27430
1W
1U
b1 M
#27470
0,
#27511
1,
#27512
b10 M
0W
b1 N
#27552
0,
#27593
1,
#27594
1=
b11 M
#27634
0,
#27675
1,
#27676
0=
b0 M
b11 T
#27716
0,
#27757
1,
#27758
b1 M
#27798
0,
#27839
1,
#27840
b10 M
#27880
0,
#27921
1,
#27922
1=
b11 M
#27962
0,
#28003
1,
#28004
0=
b0 M
b111 T
#28044
0,
#28085
1,
#28086
b1 M
#28126
0,
#28167
1,
#28168
b10 M
#28208
0,
#28249
1,
#28250
1=
b11 M
#28290
0,
#28331
1,
#28332
0=
b0 M
b1111 T
#28372
0,
#28413
1,
#28414
b1 M
#28454
0,
#28495
1,
#28496
b10 M
#28536
0,
#28577
1,
#28578
1=
b11 M
#28618
0,
#28659
1,
#28660
0=
0"
b0 M
b1 T
#28700
0,
#28741
1,
#28742
1V
0U
b1 M
#28782
0,
#28823
1,
#28824
b1001011 P
b10 M
0V
#28864
0,
#28905
1,
#28906
1=
b11 M
#28946
0,
#28987
1,
#28988
0=
b0 M
b11 T
#29028
0,
#29069
1,
#29070
b1 M
#29110
0,
#29151
1,
#29152
b10 M
#29192
0,
#29233
1,
#29234
1=
b11 M
#29274
0,
#29315
1,
#29316
0=
b0 M
b111 T
#29356
0,
#29397
1,
#29398
b1 M
#29438
0,
#29479
1,
#29480
b10 M
#29520
0,
#29561
1,
#29562
1=
b11 M
#29602
0,
#29643
1,
#29644
0=
b0 M
b1111 T
#29684
0,
#29725
1,
#29726
b1 M
#29766
0,
#29807
1,
#29808
b10 M
#29848
0,
#29889
1,
#29890
1=
b11 M
#29930
0,
#29971
1,
#29972
0=
1"
b0 M
b1 T
#30012
0,
#30053
1,
#30054
1W
1U
b1 M
#30094
0,
#30135
1,
#30136
b10 M
0W
b10 N
#30176
0,
#30217
1,
#30218
1=
b11 M
#30258
0,
#30299
1,
#30300
0=
b0 M
b11 T
#30340
0,
#30381
1,
#30382
b1 M
#30422
0,
#30463
1,
#30464
b10 M
#30504
0,
#30545
1,
#30546
1=
b11 M
#30586
0,
#30627
1,
#30628
0=
b0 M
b111 T
#30668
0,
#30709
1,
#30710
b1 M
#30750
0,
#30791
1,
#30792
b10 M
#30832
0,
#30873
1,
#30874
1=
b11 M
#30914
0,
#30955
1,
#30956
0=
b0 M
b1111 T
#30996
0,
#31037
1,
#31038
b1 M
#31078
0,
#31119
1,
#31120
b10 M
#31160
0,
#31201
1,
#31202
1=
b11 M
#31242
0,
#31283
1,
#31284
0=
0"
b0 M
b1 T
#31324
0,
#31365
1,
#31366
1V
0U
b1 M
#31406
0,
#31447
1,
#31448
b10010111 P
b10 M
0V
#31488
0,
#31529
1,
#31530
1=
b11 M
#31570
0,
#31611
1,
#31612
0=
b0 M
b11 T
#31652
0,
#31693
1,
#31694
b1 M
#31734
0,
#31775
1,
#31776
b10 M
#31816
0,
#31857
1,
#31858
1=
b11 M
#31898
0,
#31939
1,
#31940
0=
b0 M
b111 T
#31980
0,
#32021
1,
#32022
b1 M
#32062
0,
#32103
1,
#32104
b10 M
#32144
0,
#32185
1,
#32186
1=
b11 M
#32226
0,
#32267
1,
#32268
0=
b0 M
b1111 T
#32308
0,
#32349
1,
#32350
b1 M
#32390
0,
#32431
1,
#32432
b10 M
#32472
0,
#32513
1,
#32514
1=
b11 M
#32554
0,
#32595
1,
#32596
0=
1"
b0 M
b1 T
#32636
0,
#32677
1,
#32678
1W
1U
b1 M
#32718
0,
#32759
1,
#32760
b10 M
0W
b11 N
#32800
0,
#32841
1,
#32842
1=
b11 M
#32882
0,
#32923
1,
#32924
0=
b0 M
b11 T
#32964
0,
#33005
1,
#33006
b1 M
#33046
0,
#33087
1,
#33088
b10 M
#33128
0,
#33169
1,
#33170
1=
b11 M
#33210
0,
#33251
1,
#33252
0=
b0 M
b111 T
#33292
0,
#33333
1,
#33334
b1 M
#33374
0,
#33415
1,
#33416
b10 M
#33456
0,
#33497
1,
#33498
1=
b11 M
#33538
0,
#33579
1,
#33580
0=
b0 M
b1111 T
#33620
0,
#33661
1,
#33662
b1 M
#33702
0,
#33743
1,
#33744
b10 M
#33784
0,
#33825
1,
#33826
1=
b11 M
#33866
0,
#33907
1,
#33908
0=
0"
b0 M
b1 T
#33948
0,
#33989
1,
#33990
1V
0U
b1 M
#34030
0,
#34071
1,
#34072
b101111 P
1!
b10 M
0V
#34112
0,
#34153
1,
#34154
1=
b11 M
#34194
0,
#34235
1,
#34236
0=
b0 M
b11 T
#34276
0,
#34317
1,
#34318
b1 M
#34358
0,
#34399
1,
#34400
b10 M
#34440
0,
#34481
1,
#34482
1=
b11 M
#34522
0,
#34563
1,
#34564
0=
b0 M
b111 T
#34604
0,
#34645
1,
#34646
b1 M
#34686
0,
#34727
1,
#34728
b10 M
#34768
0,
#34809
1,
#34810
1=
b11 M
#34850
0,
#34891
1,
#34892
0=
b0 M
b1111 T
#34932
0,
#34973
1,
#34974
b1 M
#35014
0,
#35055
1,
#35056
b10 M
#35096
0,
#35137
1,
#35138
1=
b11 M
#35178
0,
#35219
1,
#35220
0=
1"
b0 M
b1 T
#35260
0,
#35301
1,
#35302
1W
1U
b1 M
#35342
0,
#35383
1,
#35384
b10 M
0W
b100 N
#35424
0,
#35465
1,
#35466
1=
b11 M
#35506
0,
#35547
1,
#35548
0=
b0 M
b11 T
#35588
0,
#35629
1,
#35630
b1 M
#35670
0,
#35711
1,
#35712
b10 M
#35752
0,
#35793
1,
#35794
1=
b11 M
#35834
0,
#35875
1,
#35876
0=
b0 M
b111 T
#35916
0,
#35957
1,
#35958
b1 M
#35998
0,
#36039
1,
#36040
b10 M
#36080
0,
#36121
1,
#36122
1=
b11 M
#36162
0,
#36203
1,
#36204
0=
b0 M
b1111 T
#36244
0,
#36285
1,
#36286
b1 M
#36326
0,
#36367
1,
#36368
b10 M
#36408
0,
#36449
1,
#36450
1=
b11 M
#36490
0,
#36531
1,
#36532
0=
0"
b0 M
b1 T
#36572
0,
#36613
1,
#36614
1V
0U
b1 M
#36654
0,
#36695
1,
#36696
b1011111 P
0!
b10 M
0V
#36736
0,
#36777
1,
#36778
1=
b11 M
#36818
0,
#36859
1,
#36860
0=
b0 M
b11 T
#36900
0,
#36941
1,
#36942
b1 M
#36982
0,
#37023
1,
#37024
b10 M
#37064
0,
#37105
1,
#37106
1=
b11 M
#37146
0,
#37187
1,
#37188
0=
b0 M
b111 T
#37228
0,
#37269
1,
#37270
b1 M
#37310
0,
#37351
1,
#37352
b10 M
#37392
0,
#37433
1,
#37434
1=
b11 M
#37474
0,
#37515
1,
