build/test_case_20220828_154201.vcd
$date
	Sun Aug 28 15:42:01 2022
$end
$version
	Icarus Verilog
$end
$timescale
	1ps
$end
$scope module test_case $end
$scope module u_test_harness $end
$var wire 1 ! sda_out $end
$var wire 1 " scl_out $end
$var wire 1 # read_en $end
$var wire 8 $ read_data [7:0] $end
$var wire 1 % flag_stop $end
$var wire 1 & flag_start $end
$var wire 1 ' flag_restar $end
$var wire 1 ( flag_nack $end
$var wire 1 ) flag_ack $end
$var parameter 32 * CLK_PERIOD $end
$var parameter 32 + U_DLY $end
$var reg 1 , clk $end
$var reg 1 - conti_receive $end
$var reg 1 . conti_write $end
$var reg 1 / i2c_begin $end
$var reg 1 0 i2c_begin_finish $end
$var reg 1 1 i2c_rw $end
$var reg 8 2 i2c_slave_addr [7:0] $end
$var reg 1 3 init_finish $end
$var reg 1 4 rst_n $end
$var reg 1 5 sda_in $end
$var reg 8 6 write_data [7:0] $end
$var reg 1 7 write_en $end
$scope module u_i2c_master $end
$var wire 1 , clk $end
$var wire 1 - conti_receive $end
$var wire 1 . conti_write $end
$var wire 1 / i2c_begin $end
$var wire 1 8 i2c_begin_sig $end
$var wire 1 1 i2c_rw $end
$var wire 1 3 init_finish $end
$var wire 1 4 rst_n $end
$var wire 1 5 sda_in $end
$var wire 8 9 slave_addr [7:0] $end
$var wire 8 : write_data [7:0] $end
$var wire 1 7 write_en $end
$var wire 1 ; sda_filter $end
$var wire 1 < cnt_clk_reload $end
$var parameter 32 = FILTER $end
$var parameter 32 > FILTER_WIDTH $end
$var parameter 32 ? PRESCALER $end
$var parameter 4 @ STATE_ACK0 $end
$var parameter 4 A STATE_ACK1 $end
$var parameter 4 B STATE_ACK2 $end
$var parameter 4 C STATE_ADDR $end
$var parameter 4 D STATE_IDLE $end
$var parameter 4 E STATE_NACK $end
$var parameter 4 F STATE_RD_DAT $end
$var parameter 4 G STATE_RESTART $end
$var parameter 4 H STATE_START $end
$var parameter 4 I STATE_STOP $end
$var parameter 4 J STATE_WR_DAT $end
$var parameter 32 K U_DLY $end
$var reg 8 L cnt_clk [7:0] $end
$var reg 8 M cnt_sda [7:0] $end
$var reg 8 N curr_state [7:0] $end
$var reg 8 O data_send [7:0] $end
$var reg 1 ) flag_ack $end
$var reg 1 ( flag_nack $end
$var reg 1 ' flag_restar $end
$var reg 1 & flag_start $end
$var reg 1 % flag_stop $end
$var reg 4 P i2c_begin_dly [3:0] $end
$var reg 8 Q next_state [7:0] $end
$var reg 8 R read_data [7:0] $end
$var reg 1 # read_en $end
$var reg 4 S scl_cnt [3:0] $end
$var reg 1 T scl_dly $end
$var reg 1 U scl_neg $end
$var reg 1 " scl_out $end
$var reg 1 V scl_pos $end
$var reg 1 ! sda_out $end
$scope begin genblk1 $end
$var reg 1 W sda_filter_reg $end
$var reg 2 X sda_pipe [1:0] $end
$upscope $end
$upscope $end
$scope task generate_i2c_start $end
$var reg 16 Y begin_time [15:0] $end
$upscope $end
$scope task i2c_eeprom_random_read $end
$var reg 8 Z addr [7:0] $end
$var reg 8 [ recv_data [7:0] $end
$var reg 16 \ word_address [15:0] $end
$upscope $end
$scope task i2c_recv_bytes $end
$var reg 8 ] addr [7:0] $end
$var reg 8 ^ num [7:0] $end
$var reg 8 _ recv_data [7:0] $end
$var integer 32 ` i [31:0] $end
$upscope $end
$scope task i2c_recv_one_byte $end
$var reg 8 a addr [7:0] $end
$var reg 8 b recv_data [7:0] $end
$upscope $end
$scope task i2c_send_bytes $end
$var reg 8 c addr [7:0] $end
$var reg 64 d bytes [63:0] $end
$var reg 8 e num [7:0] $end
$var reg 64 f temp_bytes [63:0] $end
$var integer 32 g i [31:0] $end
$upscope $end
$scope task i2c_send_one_byte $end
$var reg 8 h addr [7:0] $end
$var reg 8 i byte [7:0] $end
$upscope $end
$scope task i2c_sim_rd $end
$var reg 8 j num [7:0] $end
$var reg 8 k sim_rd [7:0] $end
$var integer 32 l i [31:0] $end
$var integer 32 m j [31:0] $end
$upscope $end
$scope task i2c_sim_wr $end
$var reg 64 n bytes [63:0] $end
$var reg 8 o data_send [7:0] $end
$var reg 8 p num [7:0] $end
$var integer 32 q i [31:0] $end
$var integer 32 r j [31:0] $end
$upscope $end
$upscope $end
$upscope $end
$enddefinitions $end
$comment Show the parameter values. $end
$dumpall
b1 K
b100 J
b1001 I
b1 H
b1010 G
b110 F
b1000 E
b0 D
b10 C
b111 B
b101 A
b11 @
b11110 ?
b10 >
b1 =
b1 +
b1010 *
$end
#0
$dumpvars
bx r
bx q
bx p
bx o
bx n
bx m
bx l
bx k
bx j
bx i
bx h
bx g
bx f
bx e
bx d
bx c
bx b
bx a
bx `
bx _
bx ^
bx ]
bx \
bx [
bx Z
bx Y
bx X
xW
xV
xU
xT
bx S
bx R
b0 Q
bx P
bx O
bx N
bx M
bx L
x<
x;
b0 :
b0 9
x8
07
b0 6
05
14
x3
b0 2
01
00
0/
0.
0-
0,
x)
x(
x'
x&
x%
bx $
x#
x"
x!
$end
#5000
1,
#6000
bx0 X
b0 N
1"
1!
bx0 P
0V
0U
0#
0(
0)
0&
0%
0'
#10000
0,
#15000
1,
#16000
0<
b0 $
b0 R
1T
b0 L
bx00 P
b0 X
#20000
0,
#25000
1,
#26000
08
0;
0W
bx000 P
#30000
0,
#35000
04
1,
#36000
b0 M
b1 S
b0 P
b0 O
1;
1W
b11 X
#40000
0,
#45000
1,
#50000
0,
#55000
1,
#60000
0,
#65000
1,
#70000
0,
#75000
14
1,
#76000
b10 X
#80000
0,
#85000
1,
#86000
b0 X
#90000
0,
#95000
1,
#96000
0;
0W
#100000
1/
b10100 Y
1.
b1001000110100 \
b10100000 Z
0,
13
#105000
1,
#106000
b1 P
#110000
0,
#115000
1,
#116000
b11 P
#120000
0,
10
0/
#125000
1,
#126000
b1 Q
18
b110 P
#130000
0,
#135000
1,
#136000
08
b10100000 2
b10100000 9
1&
b1100 P
b1 N
#140000
0,
#145000
1,
#146000
b10100000 O
b1000 P
b1 L
0&
#150000
0,
#155000
1,
#156000
b10 L
b0 P
#160000
0,
#165000
1,
#166000
b11 L
#170000
0,
#175000
1,
#176000
b100 L
#180000
0,
#185000
1,
#186000
b101 L
#190000
0,
#195000
1,
#196000
b110 L
#200000
0,
#205000
1,
#206000
b111 L
#210000
0,
#215000
1,
#216000
b1000 L
#220000
0,
#225000
1,
#226000
b1001 L
#230000
0,
#235000
1,
#236000
b1010 L
#240000
0,
#245000
1,
#246000
b1011 L
#250000
0,
#255000
1,
#256000
b1100 L
#260000
0,
#265000
1,
#266000
b1101 L
#270000
0,
#275000
1,
#276000
b1110 L
#280000
0,
#285000
1,
#286000
b1111 L
#290000
0,
#295000
1,
#296000
b10000 L
#300000
0,
#305000
1,
#306000
b10001 L
#310000
0,
#315000
1,
#316000
b10010 L
#320000
0,
#325000
1,
#326000
b10011 L
#330000
0,
#335000
1,
#336000
b10100 L
#340000
0,
#345000
1,
#346000
b10101 L
#350000
0,
#355000
1,
#356000
b10110 L
#360000
0,
#365000
1,
#366000
b10111 L
#370000
0,
#375000
1,
#376000
b11000 L
#380000
0,
#385000
1,
#386000
b11001 L
#390000
0,
#395000
1,
#396000
b11010 L
#400000
0,
#405000
1,
#406000
b11011 L
#410000
0,
#415000
1,
#416000
b11100 L
#420000
0,
#425000
1,
#426000
b11101 L
#430000
0,
#435000
1,
#436000
1<
b11110 L
#440000
0,
#445000
1,
#446000
0<
b0 L
b11 S
#450000
0,
#455000
1,
#456000
b1 L
#460000
0,
#465000
1,
#466000
b10 L
#470000
0,
#475000
1,
#476000
b11 L
#480000
0,
#485000
1,
#486000
b100 L
#490000
0,
#495000
1,
#496000
b101 L
#500000
0,
#505000
1,
#506000
b110 L
#510000
0,
#515000
1,
#516000
b111 L
#520000
0,
#525000
1,
#526000
b1000 L
#530000
0,
#535000
1,
#536000
b1001 L
#540000
0,
#545000
1,
#546000
b1010 L
#550000
0,
#555000
1,
#556000
b1011 L
#560000
0,
#565000
1,
#566000
b1100 L
#570000
0,
#575000
1,
#576000
b1101 L
#580000
0,
#585000
1,
#586000
b1110 L
#590000
0,
#595000
1,
#596000
b1111 L
#600000
0,
#605000
1,
#606000
b10000 L
#610000
0,
#615000
1,
#616000
b10001 L
#620000
0,
#625000
1,
#626000
b10010 L
#630000
0,
#635000
1,
#636000
b10011 L
#640000
0,
#645000
1,
#646000
b10100 L
#650000
0,
#655000
1,
#656000
b10101 L
#660000
0,
#665000
1,
#666000
b10110 L
#670000
0,
#675000
1,
#676000
b10111 L
#680000
0,
#685000
1,
#686000
b11000 L
#690000
0,
#695000
1,
#696000
b11001 L
#700000
0,
#705000
1,
#706000
b11010 L
#710000
0,
#715000
1,
#716000
b11011 L
#720000
0,
#725000
1,
#726000
b11100 L
#730000
0,
#735000
1,
#736000
b11101 L
#740000
0,
#745000
1,
#746000
1<
b11110 L
#750000
0,
#755000
1,
#756000
0<
b111 S
b0 L
0!
#760000
0,
#765000
1,
#766000
b1 L
#770000
0,
#775000
1,
#776000
b10 L
#780000
0,
#785000
1,
#786000
b11 L
#790000
0,
#795000
1,
#796000
b100 L
#800000
0,
#805000
1,
#806000
b101 L
#810000
0,
#815000
1,
#816000
b110 L
#820000
0,
#825000
1,
#826000
b111 L
#830000
0,
#835000
1,
#836000
b1000 L
#840000
0,
#845000
1,
#846000
b1001 L
#850000
0,
#855000
1,
#856000
b1010 L
#860000
0,
#865000
1,
#866000
b1011 L
#870000
0,
#875000
1,
#876000
b1100 L
#880000
0,
#885000
1,
#886000
b1101 L
#890000
0,
#895000
1,
#896000
b1110 L
#900000
0,
#905000
1,
#906000
b1111 L
#910000
0,
#915000
1,
#916000
b10000 L
#920000
0,
#925000
1,
#926000
b10001 L
#930000
0,
#935000
1,
#936000
b10010 L
#940000
0,
#945000
1,
#946000
b10011 L
#950000
0,
#955000
1,
#956000
b10100 L
#960000
0,
#965000
1,
#966000
b10101 L
#970000
0,
#975000
1,
#976000
b10110 L
#980000
0,
#985000
1,
#986000
b10111 L
#990000
0,
#995000
1,
#996000
b11000 L
#1000000
0,
#1005000
1,
#1006000
b11001 L
#1010000
0,
#1015000
1,
#1016000
b11010 L
#1020000
0,
#1025000
1,
#1026000
b11011 L
#1030000
0,
#1035000
1,
#1036000
b11100 L
#1040000
0,
#1045000
1,
#1046000
b11101 L
#1050000
0,
#1055000
1,
#1056000
1<
b11110 L
#1060000
0,
#1065000
1,
#1066000
0<
b1 Q
b0 L
b1111 S
#1070000
0,
#1075000
1,
#1076000
b1 L
#1080000
0,
#1085000
1,
#1086000
b10 L
#1090000
0,
#1095000
1,
#1096000
b11 L
#1100000
0,
#1105000
1,
#1106000
b100 L
#1110000
0,
#1115000
1,
#1116000
b101 L
#1120000
0,
#1125000
1,
#1126000
b110 L
#1130000
0,
#1135000
1,
#1136000
b111 L
#1140000
0,
#1145000
1,
#1146000
b1000 L
#1150000
0,
#1155000
1,
#1156000
b1001 L
#1160000
0,
#1165000
1,
#1166000
b1010 L
#1170000
0,
#1175000
1,
#1176000
b1011 L
#1180000
0,
#1185000
1,
#1186000
b1100 L
#1190000
0,
#1195000
1,
#1196000
b1101 L
#1200000
0,
#1205000
1,
#1206000
b1110 L
#1210000
0,
#1215000
1,
#1216000
b1111 L
#1220000
0,
#1225000
1,
#1226000
b10000 L
#1230000
0,
#1235000
1,
#1236000
b10001 L
#1240000
0,
#1245000
1,
#1246000
b10010 L
#1250000
0,
#1255000
1,
#1256000
b10011 L
#1260000
0,
#1265000
1,
#1266000
b10100 L
#1270000
0,
#1275000
1,
#1276000
b10101 L
#1280000
0,
#1285000
1,
#1286000
b10110 L
#1290000
0,
#1295000
1,
#1296000
b10111 L
#1300000
0,
#1305000
1,
#1306000
b11000 L
#1310000
0,
#1315000
1,
#1316000
b11001 L
#1320000
0,
#1325000
1,
#1326000
b11010 L
#1330000
0,
#1335000
1,
#1336000
b11011 L
#1340000
0,
#1345000
1,
#1346000
b11100 L
#1350000
0,
#1355000
1,
#1356000
b11101 L
#1360000
0,
#1365000
1,
#1366000
b10 Q
1<
b11110 L
#1370000
0,
#1375000
1,
#1376000
0<
b1 S
b0 L
0"
b10 N
#1380000
0,
#1385000
1,
#1386000
b1 L
0T
1U
#1390000
0,
#1395000
1,
#1396000
0U
b10 L
b1000001 O
1!
#1400000
0,
#1405000
1,
#1406000
b11 L
#1410000
0,
#1415000
1,
#1416000
b100 L
#1420000
0,
#1425000
1,
#1426000
b101 L
#1430000
0,
#1435000
1,
#1436000
b110 L
#1440000
0,
#1445000
1,
#1446000
b111 L
#1450000
0,
#1455000
1,
#1456000
b1000 L
#1460000
0,
#1465000
1,
#1466000
b1001 L
#1470000
0,
#1475000
1,
#1476000
b1010 L
#1480000
0,
#1485000
1,
#1486000
b1011 L
#1490000
0,
#1495000
1,
#1496000
b1100 L
#1500000
0,
#1505000
1,
#1506000
b1101 L
#1510000
0,
#1515000
1,
#1516000
b1110 L
#1520000
0,
#1525000
1,
#1526000
b1111 L
#1530000
0,
#1535000
1,
#1536000
b10000 L
#1540000
0,
#1545000
1,
#1546000
b10001 L
#1550000
0,
#1555000
1,
#1556000
b10010 L
#1560000
0,
#1565000
1,
#1566000
b10011 L
#1570000
0,
#1575000
1,
#1576000
b10100 L
#1580000
0,
#1585000
1,
#1586000
b10101 L
#1590000
0,
#1595000
1,
#1596000
b10110 L
#1600000
0,
#1605000
1,
#1606000
b10111 L
#1610000
0,
#1615000
1,
#1616000
b11000 L
#1620000
0,
#1625000
1,
#1626000
b11001 L
#1630000
0,
#1635000
1,
#1636000
b11010 L
#1640000
0,
#1645000
1,
#1646000
b11011 L
#1650000
0,
#1655000
1,
#1656000
b11100 L
#1660000
0,
#1665000
1,
#1666000
b11101 L
#1670000
0,
#1675000
1,
#1676000
1<
b11110 L
#1680000
0,
#1685000
1,
#1686000
0<
b0 L
b11 S
#1690000
0,
#1695000
1,
#1696000
b1 L
#1700000
0,
#1705000
1,
#1706000
b10 L
#1710000
0,
#1715000
1,
#1716000
b11 L
#1720000
0,
#1725000
1,
#1726000
b100 L
#1730000
0,
#1735000
1,
#1736000
b101 L
#1740000
0,
#1745000
1,
#1746000
b110 L
#1750000
0,
#1755000
1,
#1756000
b111 L
#1760000
0,
#1765000
1,
#1766000
b1000 L
#1770000
0,
#1775000
1,
#1776000
b1001 L
#1780000
0,
#1785000
1,
#1786000
b1010 L
#1790000
0,
#1795000
1,
#1796000
b1011 L
#1800000
0,
#1805000
1,
#1806000
b1100 L
#1810000
0,
#1815000
1,
#1816000
b1101 L
#1820000
0,
#1825000
1,
#1826000
b1110 L
#1830000
0,
#1835000
1,
#1836000
b1111 L
#1840000
0,
#1845000
1,
#1846000
b10000 L
#1850000
0,
#1855000
1,
#1856000
b10001 L
#1860000
0,
#1865000
1,
#1866000
b10010 L
#1870000
0,
#1875000
1,
#1876000
b10011 L
#1880000
0,
#1885000
1,
#1886000
b10100 L
#1890000
0,
#1895000
1,
#1896000
b10101 L
#1900000
0,
#1905000
1,
#1906000
b10110 L
#1910000
0,
#1915000
1,
#1916000
b10111 L
#1920000
0,
#1925000
1,
#1926000
b11000 L
#1930000
0,
#1935000
1,
#1936000
b11001 L
#1940000
0,
#1945000
1,
#1946000
b11010 L
#1950000
0,
#1955000
1,
#1956000
b11011 L
#1960000
0,
#1965000
1,
#1966000
b11100 L
#1970000
0,
#1975000
1,
#1976000
b11101 L
#1980000
0,
#1985000
1,
#1986000
1<
b11110 L
#1990000
0,
#1995000
1,
#1996000
0<
b111 S
b0 L
#2000000
0,
#2005000
1,
#2006000
b1 L
#2010000
0,
#2015000
1,
#2016000
b10 L
#2020000
0,
#2025000
1,
#2026000
b11 L
#2030000
0,
#2035000
1,
#2036000
b100 L
#2040000
0,
#2045000
1,
#2046000
b101 L
#2050000
0,
#2055000
1,
#2056000
b110 L
#2060000
0,
#2065000
1,
#2066000
b111 L
#2070000
0,
#2075000
1,
#2076000
b1000 L
#2080000
0,
#2085000
1,
#2086000
b1001 L
#2090000
0,
#2095000
1,
#2096000
b1010 L
#2100000
0,
#2105000
1,
#2106000
b1011 L
#2110000
0,
#2115000
1,
#2116000
b1100 L
#2120000
0,
#2125000
1,
#2126000
b1101 L
#2130000
0,
#2135000
1,
#2136000
b1110 L
#2140000
0,
#2145000
1,
#2146000
b1111 L
#2150000
0,
#2155000
1,
#2156000
b10000 L
#2160000
0,
#2165000
1,
#2166000
b10001 L
#2170000
0,
#2175000
1,
#2176000
b10010 L
#2180000
0,
#2185000
1,
#2186000
b10011 L
#2190000
0,
#2195000
1,
#2196000
b10100 L
#2200000
0,
#2205000
1,
#2206000
b10101 L
#2210000
0,
#2215000
1,
#2216000
b10110 L
#2220000
0,
#2225000
1,
#2226000
b10111 L
#2230000
0,
#2235000
1,
#2236000
b11000 L
#2240000
0,
#2245000
1,
#2246000
b11001 L
#2250000
0,
#2255000
1,
#2256000
b11010 L
#2260000
0,
#2265000
1,
#2266000
b11011 L
#2270000
0,
#2275000
1,
#2276000
b11100 L
#2280000
0,
#2285000
1,
#2286000
b11101 L
#2290000
0,
#2295000
1,
#2296000
1<
b11110 L
#2300000
0,
#2305000
1,
#2306000
0<
b0 L
b1111 S
#2310000
0,
#2315000
1,
#2316000
b1 L
#2320000
0,
#2325000
1,
#2326000
b10 L
#2330000
0,
#2335000
1,
#2336000
b11 L
#2340000
0,
#2345000
1,
#2346000
b100 L
#2350000
0,
#2355000
1,
#2356000
b101 L
#2360000
0,
#2365000
1,
#2366000
b110 L
#2370000
0,
#2375000
1,
#2376000
b111 L
#2380000
0,
#2385000
1,
#2386000
b1000 L
#2390000
0,
#2395000
1,
#2396000
b1001 L
#2400000
0,
#2405000
1,
#2406000
b1010 L
#2410000
0,
#2415000
1,
#2416000
b1011 L
#2420000
0,
#2425000
1,
#2426000
b1100 L
#2430000
0,
#2435000
1,
#2436000
b1101 L
#2440000
0,
#2445000
1,
#2446000
b1110 L
#2450000
0,
#2455000
1,
#2456000
b1111 L
#2460000
0,
#2465000
1,
#2466000
b10000 L
#2470000
0,
#2475000
1,
#2476000
b10001 L
#2480000
0,
#2485000
1,
#2486000
b10010 L
#2490000
0,
#2495000
1,
#2496000
b10011 L
#2500000
0,
#2505000
1,
#2506000
b10100 L
#2510000
0,
#2515000
1,
#2516000
b10101 L
#2520000
0,
#2525000
1,
#2526000
b10110 L
#2530000
0,
#2535000
1,
#2536000
b10111 L
#2540000
0,
#2545000
1,
#2546000
b11000 L
#2550000
0,
#2555000
1,
#2556000
b11001 L
#2560000
0,
#2565000
1,
#2566000
b11010 L
#2570000
0,
#2575000
1,
#2576000
b11011 L
#2580000
0,
#2585000
1,
#2586000
b11100 L
#2590000
0,
#2595000
1,
#2596000
b11101 L
#2600000
0,
#2605000
1,
#2606000
1<
b11110 L
#2610000
0,
#2615000
1,
#2616000
0<
b1 S
b0 L
1"
#2620000
0,
#2625000
1,
#2626000
b1 L
1T
1V
#2630000
0,
#2635000
1,
#2636000
b1 M
0V
b10 L
#2640000
0,
#2645000
1,
#2646000
b11 L
#2650000
0,
#2655000
1,
#2656000
b100 L
#2660000
0,
#2665000
1,
#2666000
b101 L
#2670000
0,
#2675000
1,
#2676000
b110 L
#2680000
0,
#2685000
1,
#2686000
b111 L
#2690000
0,
#2695000
1,
#2696000
b1000 L
#2700000
0,
#2705000
1,
#2706000
b1001 L
#2710000
0,
#2715000
1,
#2716000
b1010 L
#2720000
0,
#2725000
1,
#2726000
b1011 L
#2730000
0,
#2735000
1,
#2736000
b1100 L
#2740000
0,
#2745000
1,
#2746000
b1101 L
#2750000
0,
#2755000
1,
#2756000
b1110 L
#2760000
0,
#2765000
1,
#2766000
b1111 L
#2770000
0,
#2775000
1,
#2776000
b10000 L
#2780000
0,
#2785000
1,
#2786000
b10001 L
#2790000
0,
#2795000
1,
#2796000
b10010 L
#2800000
0,
#2805000
1,
#2806000
b10011 L
#2810000
0,
#2815000
1,
#2816000
b10100 L
#2820000
0,
#2825000
1,
#2826000
b10101 L
#2830000
0,
#2835000
1,
#2836000
b10110 L
#2840000
0,
#2845000
1,
#2846000
b10111 L
#2850000
0,
#2855000
1,
#2856000
b11000 L
#2860000
0,
#2865000
1,
#2866000
b11001 L
#2870000
0,
#2875000
1,
#2876000
b11010 L
#2880000
0,
#2885000
1,
#2886000
b11011 L
#2890000
0,
#2895000
1,
#2896000
b11100 L
#2900000
0,
#2905000
1,
#2906000
b11101 L
#2910000
0,
#2915000
1,
#2916000
1<
b11110 L
#2920000
0,
#2925000
1,
#2926000
0<
b0 L
b11 S
#2930000
0,
#2935000
1,
#2936000
b1 L
#2940000
0,
#2945000
1,
#2946000
b10 L
#2950000
0,
#2955000
1,
#2956000
b11 L
#2960000
0,
#2965000
1,
#2966000
b100 L
#2970000
0,
#2975000
1,
#2976000
b101 L
#2980000
0,
#2985000
1,
#2986000
b110 L
#2990000
0,
#2995000
1,
#2996000
b111 L
#3000000
0,
#3005000
1,
#3006000
b1000 L
#3010000
0,
#3015000
1,
#3016000
b1001 L
#3020000
0,
#3025000
1,
#3026000
b1010 L
#3030000
0,
#3035000
1,
#3036000
b1011 L
#3040000
0,
#3045000
1,
#3046000
b1100 L
#3050000
0,
#3055000
1,
#3056000
b1101 L
#3060000
0,
#3065000
1,
#3066000
b1110 L
#3070000
0,
#3075000
1,
#3076000
b1111 L
#3080000
0,
#3085000
1,
#3086000
b10000 L
#3090000
0,
#3095000
1,
#3096000
b10001 L
#3100000
0,
#3105000
1,
#3106000
b10010 L
#3110000
0,
#3115000
1,
#3116000
b10011 L
#3120000
0,
#3125000
1,
#3126000
b10100 L
#3130000
0,
#3135000
1,
#3136000
b10101 L
#3140000
0,
#3145000
1,
#3146000
b10110 L
#3150000
0,
#3155000
1,
#3156000
b10111 L
#3160000
0,
#3165000
1,
#3166000
b11000 L
#3170000
0,
#3175000
1,
#3176000
b11001 L
#3180000
0,
#3185000
1,
#3186000
b11010 L
#3190000
0,
#3195000
1,
#3196000
b11011 L
#3200000
0,
#3205000
1,
#3206000
b11100 L
#3210000
0,
#3215000
1,
#3216000
b11101 L
#3220000
0,
#3225000
1,
#3226000
1<
b11110 L
#3230000
0,
#3235000
1,
#3236000
0<
b111 S
b0 L
#3240000
0,
#3245000
1,
#3246000
b1 L
#3250000
0,
#3255000
1,
#3256000
b10 L
#3260000
0,
#3265000
1,
#3266000
b11 L
#3270000
0,
#3275000
1,
#3276000
b100 L
#3280000
0,
#3285000
1,
#3286000
b101 L
#3290000
0,
#3295000
1,
#3296000
b110 L
#3300000
0,
#3305000
1,
#3306000
b111 L
#3310000
0,
#3315000
1,
#3316000
b1000 L
#3320000
0,
#3325000
1,
#3326000
b1001 L
#3330000
0,
#3335000
1,
#3336000
b1010 L
#3340000
0,
#3345000
1,
#3346000
b1011 L
#3350000
0,
#3355000
1,
#3356000
b1100 L
#3360000
0,
#3365000
1,
#3366000
b1101 L
#3370000
0,
#3375000
1,
#3376000
b1110 L
#3380000
0,
#3385000
1,
#3386000
b1111 L
#3390000
0,
#3395000
1,
#3396000
b10000 L
#3400000
0,
#3405000
1,
#3406000
b10001 L
#3410000
0,
#3415000
1,
#3416000
b10010 L
#3420000
0,
#3425000
1,
#3426000
b10011 L
#3430000
0,
#3435000
1,
#3436000
b10100 L
#3440000
0,
#3445000
1,
#3446000
b10101 L
#3450000
0,
#3455000
1,
#3456000
b10110 L
#3460000
0,
#3465000
1,
#3466000
b10111 L
#3470000
0,
#3475000
1,
#3476000
b11000 L
#3480000
0,
#3485000
1,
#3486000
b11001 L
#3490000
0,
#3495000
1,
#3496000
b11010 L
#3500000
0,
#3505000
1,
#3506000
b11011 L
#3510000
0,
#3515000
1,
#3516000
b11100 L
#3520000
0,
#3525000
1,
#3526000
b11101 L
#3530000
0,
#3535000
1,
#3536000
1<
b11110 L
#3540000
0,
#3545000
1,
#3546000
0<
b0 L
b1111 S
#3550000
0,
#3555000
1,
#3556000
b1 L
#3560000
0,
#3565000
1,
#3566000
b10 L
#3570000
0,
#3575000
1,
#3576000
b11 L
#3580000
0,
#3585000
1,
#3586000
b100 L
#3590000
0,
#3595000
1,
#3596000
b101 L
#3600000
0,
#3605000
1,
#3606000
b110 L
#3610000
0,
#3615000
1,
#3616000
b111 L
#3620000
0,
#3625000
1,
#3626000
b1000 L
#3630000
0,
#3635000
1,
#3636000
b1001 L
#3640000
0,
#3645000
1,
#3646000
b1010 L
#3650000
0,
#3655000
1,
#3656000
b1011 L
#3660000
0,
#3665000
1,
#3666000
b1100 L
#3670000
0,
#3675000
1,
#3676000
b1101 L
#3680000
0,
#3685000
1,
#3686000
b1110 L
#3690000
0,
#3695000
1,
#3696000
b1111 L
#3700000
0,
#3705000
1,
#3706000
b10000 L
#3710000
0,
#3715000
1,
#3716000
b10001 L
#3720000
0,
#3725000
1,
#3726000
b10010 L
#3730000
0,
#3735000
1,
#3736000
b10011 L
#3740000
0,
#3745000
1,
#3746000
b10100 L
#3750000
0,
#3755000
1,
#3756000
b10101 L
#3760000
0,
#3765000
1,
#3766000
b10110 L
#3770000
0,
#3775000
1,
#3776000
b10111 L
#3780000
0,
#3785000
1,
#3786000
b11000 L
#3790000
0,
#3795000
1,
#3796000
b11001 L
#3800000
0,
#3805000
1,
#3806000
b11010 L
#3810000
0,
#3815000
1,
#3816000
b11011 L
#3820000
0,
#3825000
1,
#3826000
b11100 L
#3830000
0,
#3835000
1,
#3836000
b11101 L
#3840000
0,
#3845000
1,
#3846000
1<
b11110 L
#3850000
0,
#3855000
1,
#3856000
0<
b1 S
b0 L
0"
#3860000
0,
#3865000
1,
#3866000
b1 L
0T
1U
#3870000
0,
#3875000
1,
#3876000
0U
b10 L
b10000011 O
0!
#3880000
0,
#3885000
1,
#3886000
b11 L
#3890000
0,
#3895000
1,
#3896000
b100 L
#3900000
0,
#3905000
1,
#3906000
b101 L
#3910000
0,
#3915000
1,
#3916000
b110 L
#3920000
0,
#3925000
1,
#3926000
b111 L
#3930000
0,
#3935000
1,
#3936000
b1000 L
#3940000
0,
#3945000
1,
#3946000
b1001 L
#3950000
0,
#3955000
1,
#3956000
b1010 L
#3960000
0,
#3965000
1,
#3966000
b1011 L
#3970000
0,
#3975000
1,
#3976000
b1100 L
#3980000
0,
#3985000
1,
#3986000
b1101 L
#3990000
0,
#3995000
1,
#3996000
b1110 L
#4000000
0,
#4005000
1,
#4006000
b1111 L
#4010000
0,
#4015000
1,
#4016000
b10000 L
#4020000
0,
#4025000
1,
#4026000
b10001 L
#4030000
0,
#4035000
1,
#4036000
b10010 L
#4040000
0,
#4045000
1,
#4046000
b10011 L
#4050000
0,
#4055000
1,
#4056000
b10100 L
#4060000
0,
#4065000
1,
#4066000
b10101 L
#4070000
0,
#4075000
1,
#4076000
b10110 L
#4080000
0,
#4085000
1,
#4086000
b10111 L
#4090000
0,
#4095000
1,
#4096000
b11000 L
#4100000
0,
#4105000
1,
#4106000
b11001 L
#4110000
0,
#4115000
1,
#4116000
b11010 L
#4120000
0,
#4125000
1,
#4126000
b11011 L
#4130000
0,
#4135000
1,
#4136000
b11100 L
#4140000
0,
#4145000
1,
#4146000
b11101 L
#4150000
0,
#4155000
1,
#4156000
1<
b11110 L
#4160000
0,
#4165000
1,
#4166000
0<
b0 L
b11 S
#4170000
0,
#4175000
1,
#4176000
b1 L
#4180000
0,
#4185000
1,
#4186000
b10 L
#4190000
0,
#4195000
1,
#4196000
b11 L
#4200000
0,
#4205000
1,
#4206000
b100 L
#4210000
0,
#4215000
1,
#4216000
b101 L
#4220000
0,
#4225000
1,
#4226000
b110 L
#4230000
0,
#4235000
1,
#4236000
b111 L
#4240000
0,
#4245000
1,
#4246000
b1000 L
#4250000
0,
#4255000
1,
#4256000
b1001 L
#4260000
0,
#4265000
1,
#4266000
b1010 L
#4270000
0,
#4275000
1,
#4276000
b1011 L
#4280000
0,
#4285000
1,
#4286000
b1100 L
#4290000
0,
#4295000
1,
#4296000
b1101 L
#4300000
0,
#4305000
1,
#4306000
b1110 L
#4310000
0,
#4315000
1,
#4316000
b1111 L
#4320000
0,
#4325000
1,
#4326000
b10000 L
#4330000
0,
#4335000
1,
#4336000
b10001 L
#4340000
0,
#4345000
1,
#4346000
b10010 L
#4350000
0,
#4355000
1,
#4356000
b10011 L
#4360000
0,
#4365000
1,
#4366000
b10100 L
#4370000
0,
#4375000
1,
#4376000
b10101 L
#4380000
0,
#4385000
1,
#4386000
b10110 L
#4390000
0,
#4395000
1,
#4396000
b10111 L
#4400000
0,
#4405000
1,
#4406000
b11000 L
#4410000
0,
#4415000
1,
#4416000
b11001 L
#4420000
0,
#4425000
1,
#4426000
b11010 L
#4430000
0,
#4435000
1,
#4436000
b11011 L
#4440000
0,
#4445000
1,
#4446000
b11100 L
#4450000
0,
#4455000
1,
#4456000
b11101 L
#4460000
0,
#4465000
1,
#4466000
1<
b11110 L
#4470000
0,
#4475000
1,
#4476000
0<
b111 S
b0 L
#4480000
0,
#4485000
1,
#4486000
b1 L
#4490000
0,
#4495000
1,
#4496000
b10 L
#4500000
0,
#4505000
1,
#4506000
b11 L
#4510000
0,
#4515000
1,
#4516000
b100 L
#4520000
0,
#4525000
1,
#4526000
b101 L
#4530000
0,
#4535000
1,
#4536000
b110 L
#4540000
0,
#4545000
1,
#4546000
b111 L
#4550000
0,
#4555000
1,
#4556000
b1000 L
#4560000
0,
#4565000
1,
#4566000
b1001 L
#4570000
0,
#4575000
1,
#4576000
b1010 L
#4580000
0,
#4585000
1,
#4586000
b1011 L
#4590000
0,
#4595000
1,
#4596000
b1100 L
#4600000
0,
#4605000
1,
#4606000
b1101 L
#4610000
0,
#4615000
1,
#4616000
b1110 L
#4620000
0,
#4625000
1,
#4626000
b1111 L
#4630000
0,
