build/test_case_20220828_232802.vcd
$date
	Sun Aug 28 23:28:03 2022
$end
$version
	Icarus Verilog
$end
$timescale
	10ps
$end
$scope module test_case $end
$scope module u_test_harness $end
$var wire 1 ! scl $end
$var wire 1 " sda $end
$var parameter 32 # CLK_PERIOD $end
$var parameter 32 $ U_DLY $end
$var reg 1 % clk $end
$var reg 1 & rst_n $end
$scope module memory $end
$var wire 1 ' A0 $end
$var wire 1 ( A1 $end
$var wire 1 ) A2 $end
$var wire 8 * MemoryByte00 [7:0] $end
$var wire 8 + MemoryByte01 [7:0] $end
$var wire 8 , MemoryByte02 [7:0] $end
$var wire 8 - MemoryByte03 [7:0] $end
$var wire 8 . MemoryByte04 [7:0] $end
$var wire 8 / MemoryByte05 [7:0] $end
$var wire 8 0 MemoryByte06 [7:0] $end
$var wire 8 1 MemoryByte07 [7:0] $end
$var wire 8 2 MemoryByte08 [7:0] $end
$var wire 8 3 MemoryByte09 [7:0] $end
$var wire 8 4 MemoryByte0A [7:0] $end
$var wire 8 5 MemoryByte0B [7:0] $end
$var wire 8 6 MemoryByte0C [7:0] $end
$var wire 8 7 MemoryByte0D [7:0] $end
$var wire 8 8 MemoryByte0E [7:0] $end
$var wire 8 9 MemoryByte0F [7:0] $end
$var wire 1 : RESET $end
$var wire 8 ; RdDataByte [7:0] $end
$var wire 1 ! SCL $end
$var wire 1 " SDA $end
$var wire 1 < SDA_DriveEnable $end
$var wire 1 = TimingCheckEnable $end
$var wire 1 > WP $end
$var wire 8 ? WriteData_0 [7:0] $end
$var wire 8 @ WriteData_1 [7:0] $end
$var wire 8 A WriteData_2 [7:0] $end
$var wire 8 B WriteData_3 [7:0] $end
$var wire 8 C WriteData_4 [7:0] $end
$var wire 8 D WriteData_5 [7:0] $end
$var wire 8 E WriteData_6 [7:0] $end
$var wire 8 F WriteData_7 [7:0] $end
$var wire 1 G RdWrBit $end
$var parameter 32 H tBUF $end
$var parameter 32 I tHD_STA $end
$var parameter 32 J tHI $end
$var parameter 32 K tLO $end
$var parameter 32 L tSU_DAT $end
$var parameter 32 M tSU_STA $end
$var parameter 32 N tSU_STO $end
$var reg 1 O ADDR_Rcvd $end
$var reg 4 P BitCounter [3:0] $end
$var reg 1 Q CTRL_Rcvd $end
$var reg 8 R ControlByte [7:0] $end
$var reg 1 S MACK_Rcvd $end
$var reg 3 T PageAddress [2:0] $end
$var reg 1 U RdCycle $end
$var reg 8 V RdPointer [7:0] $end
$var reg 1 W SDA_DO $end
$var reg 1 X SDA_DriveEnableDlyd $end
$var reg 1 Y SDA_OE $end
$var reg 1 Z START_Rcvd $end
$var reg 1 [ STOP_Rcvd $end
$var reg 8 \ ShiftRegister [7:0] $end
$var reg 8 ] StartAddress [7:0] $end
$var reg 16 ^ WrCounter [15:0] $end
$var reg 1 _ WrCycle $end
$var reg 3 ` WrPointer [2:0] $end
$var reg 1 a WriteActive $end
$var integer 32 b LoopIndex [31:0] $end
$var integer 32 c tAA [31:0] $end
$var integer 32 d tWC [31:0] $end
$upscope $end
$scope module u_i2c_master_top $end
$var wire 1 % clk $end
$var wire 1 & rst_n $end
$var wire 1 ! scl $end
$var wire 1 " sda $end
$var wire 1 e sda_in_master $end
$var wire 1 f sda_out $end
$var wire 1 g sda_oen $end
$var wire 1 h scl_out $end
$var wire 1 i read_en $end
$var wire 8 j read_data [7:0] $end
$var wire 1 k flag_stop $end
$var wire 1 l flag_start $end
$var wire 1 m flag_restar $end
$var wire 1 n flag_nack $end
$var wire 1 o flag_ack $end
$var parameter 32 p CLK_PERIOD $end
$var parameter 32 q U_DLY $end
$var reg 1 r conti_receive $end
$var reg 1 s conti_write $end
$var reg 1 t i2c_begin $end
$var reg 1 u i2c_begin_finish $end
$var reg 1 v i2c_rw $end
$var reg 8 w i2c_slave_addr [7:0] $end
$var reg 1 x init_finish $end
$var reg 1 y sda_in $end
$var reg 8 z write_data [7:0] $end
$var reg 1 { write_en $end
$scope module u_i2c_master $end
$var wire 1 % clk $end
$var wire 1 r conti_receive $end
$var wire 1 s conti_write $end
$var wire 1 t i2c_begin $end
$var wire 1 | i2c_begin_sig $end
$var wire 1 v i2c_rw $end
$var wire 1 x init_finish $end
$var wire 1 & rst_n $end
$var wire 1 e sda_in $end
$var wire 8 } slave_addr [7:0] $end
$var wire 8 ~ write_data [7:0] $end
$var wire 1 { write_en $end
$var wire 1 !" sda_filter $end
$var wire 1 "" cnt_clk_reload $end
$var parameter 32 #" FILTER $end
$var parameter 32 $" FILTER_WIDTH $end
$var parameter 32 %" PRESCALER $end
$var parameter 4 &" STATE_ACK0 $end
$var parameter 4 '" STATE_ACK1 $end
$var parameter 4 (" STATE_ACK2 $end
$var parameter 4 )" STATE_ADDR $end
$var parameter 4 *" STATE_IDLE $end
$var parameter 4 +" STATE_NACK $end
$var parameter 4 ," STATE_RD_DAT $end
$var parameter 4 -" STATE_RESTART $end
$var parameter 4 ." STATE_START $end
$var parameter 4 /" STATE_STOP $end
$var parameter 4 0" STATE_WR_DAT $end
$var parameter 32 1" U_DLY $end
$var reg 8 2" cnt_clk [7:0] $end
$var reg 8 3" cnt_sda [7:0] $end
$var reg 8 4" curr_state [7:0] $end
$var reg 8 5" data_send [7:0] $end
$var reg 1 o flag_ack $end
$var reg 1 n flag_nack $end
$var reg 1 m flag_restar $end
$var reg 1 l flag_start $end
$var reg 1 k flag_stop $end
$var reg 4 6" i2c_begin_dly [3:0] $end
$var reg 8 7" next_state [7:0] $end
$var reg 8 8" read_data [7:0] $end
$var reg 1 i read_en $end
$var reg 8 9" scl_cnt [7:0] $end
$var reg 1 :" scl_dly $end
$var reg 1 ;" scl_neg $end
$var reg 1 h scl_out $end
$var reg 1 <" scl_pos $end
$var reg 1 g sda_oen $end
$var reg 1 f sda_out $end
$scope begin genblk1 $end
$var reg 1 =" sda_filter_reg $end
$var reg 2 >" sda_pipe [1:0] $end
$upscope $end
$upscope $end
$scope task generate_i2c_start $end
$var reg 16 ?" begin_time [15:0] $end
$upscope $end
$scope task i2c_eeprom_random_read $end
$var reg 8 @" addr [7:0] $end
$var reg 8 A" recv_data [7:0] $end
$var reg 8 B" word_addr_num [7:0] $end
$var reg 16 C" word_address [15:0] $end
$upscope $end
$scope task i2c_recv_bytes $end
$var reg 8 D" addr [7:0] $end
$var reg 8 E" num [7:0] $end
$var reg 8 F" recv_data [7:0] $end
$var integer 32 G" i [31:0] $end
$upscope $end
$scope task i2c_recv_one_byte $end
$var reg 8 H" addr [7:0] $end
$var reg 8 I" recv_data [7:0] $end
$upscope $end
$scope task i2c_send_bytes $end
$var reg 8 J" addr [7:0] $end
$var reg 64 K" bytes [63:0] $end
$var reg 8 L" num [7:0] $end
$var reg 64 M" temp_bytes [63:0] $end
$var integer 32 N" i [31:0] $end
$upscope $end
$scope task i2c_send_one_byte $end
$var reg 8 O" addr [7:0] $end
$var reg 8 P" byte [7:0] $end
$upscope $end
$scope task i2c_sim_rd $end
$var reg 8 Q" num [7:0] $end
$var reg 8 R" sim_rd [7:0] $end
$var integer 32 S" i [31:0] $end
$var integer 32 T" j [31:0] $end
$upscope $end
$scope task i2c_sim_wr $end
$var reg 64 U" bytes [63:0] $end
$var reg 8 V" data_send [7:0] $end
$var reg 8 W" num [7:0] $end
$var integer 32 X" i [31:0] $end
$var integer 32 Y" j [31:0] $end
$upscope $end
$upscope $end
$upscope $end
$upscope $end
$enddefinitions $end
$comment Show the parameter values. $end
$dumpall
b1 1"
b100 0"
b1001 /"
b1 ."
b1010 -"
b110 ,"
b1000 +"
b0 *"
b10 )"
b111 ("
b101 '"
b11 &"
b1 %"
b10 $"
b1 #"
b1 q
b1010011 p
b1001011000 N
b1001011000 M
b1100100 L
b10100010100 K
b1001011000 J
b1001011000 I
b10000010 H
b1 $
b1010011 #
$end
#0
$dumpvars
bx Y"
bx X"
bx W"
bx V"
bx U"
bx T"
bx S"
bx R"
bx Q"
bx P"
bx O"
bx N"
bx M"
bx L"
bx K"
bx J"
bx I"
bx H"
bx G"
bx F"
bx E"
bx D"
bx C"
bx B"
bx A"
bx @"
bx ?"
bx >"
x="
x<"
x;"
x:"
bx 9"
bx 8"
b0 7"
bx 6"
bx 5"
bx 4"
bx 3"
bx 2"
x""
x!"
b0 ~
b0 }
x|
0{
b0 z
0y
xx
b0 w
0v
0u
0t
0s
0r
xo
xn
xm
xl
xk
bx j
xi
xh
xg
xf
xe
b110010 d
b1110000100 c
bx b
0a
bx `
0_
bx ^
bx ]
bx \
0[
0Z
0Y
xX
0W
bx V
0U
bx T
0S
b0 R
0Q
b0 P
0O
0G
bx F
bx E
bx D
bx C
bx B
bx A
bx @
bx ?
0>
1=
0<
bx ;
0:
bx 9
bx 8
bx 7
bx 6
bx 5
bx 4
bx 3
bx 2
bx 1
bx 0
bx /
bx .
bx -
bx ,
bx +
b1011010 *
0)
0(
0'
1&
0%
x"
x!
$end
#4100
1%
#4200
b1 P
b0 4"
1!
1h
1f
1g
bx0 6"
0<"
0;"
0i
0n
0o
0l
0k
0m
#8200
0%
#12300
1%
#12400
0""
b0 j
b0 8"
1:"
b0 2"
bx00 6"
#16400
0%
#20500
1%
#20600
0|
bx000 6"
#24600
0%
#28700
0&
1%
#28800
b0 3"
b1 9"
b0 6"
b0 5"
1!"
1="
b11 >"
#32800
0%
#36900
1%
#41000
0%
#45100
1%
#49200
0%
#53300
1%
#57400
0%
#61500
1&
1%
#61600
b1x >"
#65600
0%
#69700
1%
#69800
bx >"
#73800
0%
#77900
1%
#82000
0%
#83000
1t
b10100110 ?"
b101100000001 M"
1s
b10 L"
b101100000001 K"
b10100000 J"
1x
#86100
1%
#86200
b1 6"
#90000
b1010 P
1[
1e
1"
0X
#90100
0[
#90200
0%
#94300
1%
#94400
b11 6"
bx1 >"
#98400
0%
#99600
1u
0t
#102500
1%
#102600
b1 7"
1|
b11 >"
b110 6"
#106600
0%
#110700
1%
#110800
0|
b10100000 w
b10100000 }
1l
b1100 6"
b1 4"
#114800
0%
#118900
1%
#119000
1""
b10100000 5"
b1000 6"
b1 2"
0l
#123000
0%
#127100
1%
#127200
0""
b11 9"
b0 2"
b0 6"
#131200
0%
#135300
1%
#135400
1""
b1 2"
#139400
0%
#143500
1%
#143600
0""
b111 9"
b0 2"
#147600
0%
#151700
1%
#151800
1""
b1 2"
#155800
0%
#159900
1%
#160000
0""
b1111 9"
b0 2"
#164000
0%
#168100
1%
#168200
1""
b1 2"
#172200
0%
#176300
1%
#176400
b0 P
1Z
0""
0e
0"
b11111 9"
b0 2"
0f
#180400
0%
#184500
1%
#184600
1""
b10 >"
b1 2"
#188600
0%
#192700
1%
#192800
0""
b111111 9"
b0 2"
b0 >"
#196800
0%
#200900
1%
#201000
1""
0!"
0="
b1 2"
#205000
0%
#209100
1%
#209200
0""
b1111111 9"
b0 2"
#213200
0%
#217300
1%
#217400
1""
b1 2"
#221400
0%
#225500
1%
#225600
0""
b11111111 9"
b0 2"
#229600
0%
#233700
1%
#233800
b10 7"
1""
b1 2"
#237800
0%
#241900
1%
#242000
0""
b1 9"
b0 2"
0!
0h
b10 4"
#246000
0%
#250100
1%
#250200
1""
b1 2"
0:"
1;"
#254200
0%
#258300
1%
#258400
0""
1e
1"
0;"
b11 9"
b0 2"
b1000001 5"
1f
#262400
0%
#266500
1%
#266600
1""
b1 >"
b1 2"
#270600
0%
#274700
1%
#274800
0""
b111 9"
b0 2"
b11 >"
#278800
0%
#282900
1%
#283000
1""
1!"
1="
b1 2"
#287000
0%
#291100
1%
#291200
0""
b1111 9"
b0 2"
#295200
0%
#299300
1%
#299400
1""
b1 2"
#303400
0%
#307500
1%
#307600
0""
b11111 9"
b0 2"
#311600
0%
#315700
1%
#315800
1""
b1 2"
#319800
0%
#323900
1%
#324000
0""
b111111 9"
b0 2"
#328000
0%
#332100
1%
#332200
1""
b1 2"
#336200
0%
#340300
1%
#340400
0""
b1111111 9"
b0 2"
#344400
0%
#348500
1%
#348600
1""
b1 2"
#352600
0%
#356700
1%
#356800
0""
b11111111 9"
b0 2"
#360800
0%
#364900
1%
#365000
1""
b1 2"
#369000
0%
#373100
1%
#373200
b1 P
bx1 \
0""
b1 9"
b0 2"
1!
1h
#377200
0%
#381300
1%
#381400
1""
b1 2"
1:"
1<"
#385400
0%
#389500
1%
#389600
0""
b1 3"
0<"
b11 9"
b0 2"
#393600
0%
#397700
1%
#397800
1""
b1 2"
#401800
0%
#405900
1%
#406000
0""
b111 9"
b0 2"
#410000
0%
#414100
1%
#414200
1""
b1 2"
#418200
0%
#422300
1%
#422400
0""
b1111 9"
b0 2"
#426400
0%
#430500
1%
#430600
1""
b1 2"
#434600
0%
#438700
1%
#438800
0""
b11111 9"
b0 2"
#442800
0%
#446900
1%
#447000
1""
b1 2"
#451000
0%
#455100
1%
#455200
0""
b111111 9"
b0 2"
#459200
0%
#463300
1%
#463400
1""
b1 2"
#467400
0%
#471500
1%
#471600
0""
b1111111 9"
b0 2"
#475600
0%
#479700
1%
#479800
1""
b1 2"
#483800
0%
#487900
1%
#488000
0""
b11111111 9"
b0 2"
#492000
0%
#496100
1%
#496200
1""
b1 2"
#500200
0%
#504300
1%
#504400
0""
b1 9"
b0 2"
0!
0h
#508400
0%
#512500
1%
#512600
1""
b1 2"
0:"
1;"
#516600
0%
#520700
1%
#520800
0""
0e
0"
0;"
b11 9"
b0 2"
b10000011 5"
0f
#524800
0%
#528900
1%
#529000
1""
b10 >"
b1 2"
#533000
0%
#537100
1%
#537200
0""
b111 9"
b0 2"
b0 >"
#541200
0%
#545300
1%
#545400
1""
0!"
0="
b1 2"
#549400
0%
#553500
1%
#553600
0""
b1111 9"
b0 2"
#557600
0%
#561700
1%
#561800
1""
b1 2"
#565800
0%
#569900
1%
#570000
0""
b11111 9"
b0 2"
#574000
0%
#578100
1%
#578200
1""
b1 2"
#582200
0%
#586300
1%
#586400
0""
b111111 9"
b0 2"
#590400
0%
#594500
1%
#594600
1""
b1 2"
#598600
0%
#602700
1%
#602800
0""
b1111111 9"
b0 2"
#606800
0%
#610900
1%
#611000
1""
b1 2"
#615000
0%
#619100
1%
#619200
0""
b11111111 9"
b0 2"
#623200
0%
#627300
1%
#627400
1""
b1 2"
#631400
0%
#635500
1%
#635600
bx10 \
b10 P
0""
b1 9"
b0 2"
1!
1h
#639600
0%
#643700
1%
#643800
1""
b1 2"
1:"
1<"
#647800
0%
#651900
1%
#652000
0""
b10 3"
0<"
b11 9"
b0 2"
#656000
0%
#660100
1%
#660200
1""
b1 2"
#664200
0%
#668300
1%
#668400
0""
b111 9"
b0 2"
#672400
0%
#676500
1%
#676600
1""
b1 2"
#680600
0%
#684700
1%
#684800
0""
b1111 9"
b0 2"
#688800
0%
#692900
1%
#693000
1""
b1 2"
#697000
0%
#701100
1%
#701200
0""
b11111 9"
b0 2"
#705200
0%
#709300
1%
#709400
1""
b1 2"
#713400
0%
#717500
1%
#717600
0""
b111111 9"
b0 2"
#721600
0%
#725700
1%
#725800
1""
b1 2"
#729800
0%
#733900
1%
#734000
0""
b1111111 9"
b0 2"
#738000
0%
#742100
1%
#742200
1""
b1 2"
#746200
0%
#750300
1%
#750400
0""
b11111111 9"
b0 2"
#754400
0%
#758500
1%
#758600
1""
b1 2"
#762600
0%
#766700
1%
#766800
0""
b1 9"
b0 2"
0!
0h
#770800
0%
#774900
1%
#775000
1""
b1 2"
0:"
1;"
#779000
0%
#783100
1%
#783200
0""
1e
1"
0;"
b11 9"
b0 2"
b111 5"
1f
#787200
0%
#791300
1%
#791400
1""
b1 >"
b1 2"
#795400
0%
#799500
1%
#799600
0""
b111 9"
b0 2"
b11 >"
#803600
0%
#807700
1%
#807800
1""
1!"
1="
b1 2"
#811800
0%
#815900
1%
#816000
0""
b1111 9"
b0 2"
#820000
0%
#824100
1%
#824200
1""
b1 2"
#828200
0%
#832300
1%
#832400
0""
b11111 9"
b0 2"
#836400
0%
#840500
1%
#840600
1""
b1 2"
#844600
0%
#848700
1%
#848800
0""
b111111 9"
b0 2"
#852800
0%
#856900
1%
#857000
1""
b1 2"
#861000
0%
#865100
1%
#865200
0""
b1111111 9"
b0 2"
#869200
0%
#873300
1%
#873400
1""
b1 2"
#877400
0%
#881500
1%
#881600
0""
b11111111 9"
b0 2"
#885600
0%
#889700
1%
#889800
1""
b1 2"
#893800
0%
#897900
1%
#898000
b11 P
bx101 \
0""
b1 9"
b0 2"
1!
1h
#902000
0%
#906100
1%
#906200
1""
b1 2"
1:"
1<"
#910200
0%
#914300
1%
#914400
0""
b11 3"
0<"
b11 9"
b0 2"
#918400
0%
#922500
1%
#922600
1""
b1 2"
#926600
0%
#930700
1%
#930800
0""
b111 9"
b0 2"
#934800
0%
#938900
1%
#939000
1""
b1 2"
#943000
0%
#947100
1%
#947200
0""
b1111 9"
b0 2"
#951200
0%
#955300
1%
#955400
1""
b1 2"
#959400
0%
#963500
1%
#963600
0""
b11111 9"
b0 2"
#967600
0%
#971700
1%
#971800
1""
b1 2"
#975800
0%
#979900
1%
#980000
0""
b111111 9"
b0 2"
#984000
0%
#988100
1%
#988200
1""
b1 2"
#992200
0%
#996300
1%
#996400
0""
b1111111 9"
b0 2"
#1000400
0%
#1004500
1%
#1004600
1""
b1 2"
#1008600
0%
#1012700
1%
#1012800
0""
b11111111 9"
b0 2"
#1016800
0%
#1020900
1%
#1021000
1""
b1 2"
#1025000
0%
#1029100
1%
#1029200
0""
b1 9"
b0 2"
0!
0h
#1033200
0%
#1037300
1%
#1037400
1""
b1 2"
0:"
1;"
#1041400
0%
#1045500
1%
#1045600
0""
0e
0"
0;"
b11 9"
b0 2"
b1111 5"
0f
#1049600
0%
#1053700
1%
#1053800
1""
b10 >"
b1 2"
#1057800
0%
#1061900
1%
#1062000
0""
b111 9"
b0 2"
b0 >"
#1066000
0%
#1070100
1%
#1070200
1""
0!"
0="
b1 2"
#1074200
0%
#1078300
1%
#1078400
0""
b1111 9"
b0 2"
#1082400
0%
#1086500
1%
#1086600
1""
b1 2"
#1090600
0%
#1094700
1%
#1094800
0""
b11111 9"
b0 2"
#1098800
0%
#1102900
1%
#1103000
1""
b1 2"
#1107000
0%
#1111100
1%
#1111200
0""
b111111 9"
b0 2"
#1115200
0%
#1119300
1%
#1119400
1""
b1 2"
#1123400
0%
#1127500
1%
#1127600
0""
b1111111 9"
b0 2"
#1131600
0%
#1135700
1%
#1135800
1""
b1 2"
#1139800
0%
#1143900
1%
#1144000
0""
b11111111 9"
b0 2"
#1148000
0%
#1152100
1%
#1152200
1""
b1 2"
#1156200
0%
#1160300
1%
#1160400
bx1010 \
b100 P
0""
b1 9"
b0 2"
1!
1h
#1164400
0%
#1168500
1%
#1168600
1""
b1 2"
1:"
1<"
#1172600
0%
#1176700
1%
#1176800
0""
b100 3"
0<"
b11 9"
b0 2"
#1180800
0%
#1184900
1%
#1185000
1""
b1 2"
#1189000
0%
#1193100
1%
#1193200
0""
b111 9"
b0 2"
#1197200
0%
#1201300
1%
#1201400
1""
b1 2"
#1205400
0%
#1209500
1%
#1209600
0""
b1111 9"
b0 2"
#1213600
0%
#1217700
1%
#1217800
1""
b1 2"
#1221800
0%
#1225900
1%
#1226000
0""
b11111 9"
b0 2"
#1230000
0%
#1234100
1%
#1234200
1""
b1 2"
#1238200
0%
#1242300
1%
#1242400
0""
b111111 9"
b0 2"
#1246400
0%
#1250500
1%
#1250600
1""
b1 2"
#1254600
0%
#1258700
1%
#1258800
0""
b1111111 9"
b0 2"
#1262800
0%
#1266900
1%
#1267000
1""
b1 2"
#1271000
0%
#1275100
1%
#1275200
0""
b11111111 9"
b0 2"
#1279200
0%
#1283300
1%
#1283400
1""
b1 2"
#1287400
0%
#1291500
1%
#1291600
0""
b1 9"
b0 2"
0!
0h
#1295600
0%
#1299700
1%
#1299800
1""
b1 2"
0:"
1;"
#1303800
0%
#1307900
1%
#1308000
0""
0;"
b11 9"
b0 2"
b11111 5"
#1312000
0%
#1316100
1%
#1316200
1""
b1 2"
#1320200
0%
#1324300
1%
#1324400
0""
b111 9"
b0 2"
#1328400
0%
#1332500
1%
#1332600
1""
b1 2"
#1336600
0%
#1340700
1%
#1340800
0""
b1111 9"
b0 2"
#1344800
0%
#1348900
1%
#1349000
1""
b1 2"
#1353000
0%
#1357100
1%
#1357200
0""
b11111 9"
b0 2"
#1361200
0%
#1365300
1%
#1365400
1""
b1 2"
#1369400
0%
#1373500
1%
#1373600
0""
b111111 9"
b0 2"
#1377600
0%
#1381700
1%
#1381800
1""
b1 2"
#1385800
0%
#1389900
1%
#1390000
0""
b1111111 9"
b0 2"
#1394000
0%
#1398100
1%
#1398200
1""
b1 2"
#1402200
0%
#1406300
1%
#1406400
0""
b11111111 9"
b0 2"
#1410400
0%
#1414500
1%
#1414600
1""
b1 2"
#1418600
0%
#1422700
1%
#1422800
b101 P
bx10100 \
0""
b1 9"
b0 2"
1!
1h
#1426800
0%
#1430900
1%
#1431000
1""
b1 2"
1:"
1<"
#1435000
0%
#1439100
1%
#1439200
0""
b101 3"
0<"
b11 9"
b0 2"
#1443200
0%
#1447300
1%
#1447400
1""
b1 2"
#1451400
0%
#1455500
1%
#1455600
0""
b111 9"
b0 2"
#1459600
0%
#1463700
1%
#1463800
1""
b1 2"
#1467800
0%
#1471900
1%
#1472000
0""
b1111 9"
b0 2"
#1476000
0%
#1480100
1%
#1480200
1""
b1 2"
#1484200
0%
#1488300
1%
#1488400
0""
b11111 9"
b0 2"
#1492400
0%
#1496500
1%
#1496600
1""
b1 2"
#1500600
0%
#1504700
1%
#1504800
0""
b111111 9"
b0 2"
#1508800
0%
#1512900
1%
#1513000
1""
b1 2"
#1517000
0%
#1521100
1%
#1521200
0""
b1111111 9"
b0 2"
#1525200
0%
#1529300
1%
#1529400
1""
b1 2"
#1533400
0%
#1537500
1%
#1537600
0""
b11111111 9"
b0 2"
#1541600
0%
#1545700
1%
#1545800
1""
b1 2"
#1549800
0%
#1553900
1%
#1554000
0""
b1 9"
b0 2"
0!
0h
#1558000
0%
#1562100
1%
#1562200
1""
b1 2"
0:"
1;"
#1566200
0%
#1570300
1%
#1570400
0""
0;"
b11 9"
b0 2"
b111111 5"
#1574400
0%
#1578500
1%
#1578600
1""
b1 2"
#1582600
0%
#1586700
1%
#1586800
0""
b111 9"
b0 2"
#1590800
0%
#1594900
1%
#1595000
1""
b1 2"
#1599000
0%
#1603100
1%
#1603200
0""
b1111 9"
b0 2"
#1607200
0%
#1611300
1%
#1611400
1""
b1 2"
#1615400
0%
#1619500
1%
#1619600
0""
b11111 9"
b0 2"
#1623600
0%
#1627700
1%
#1627800
1""
b1 2"
#1631800
0%
#1635900
1%
#1636000
0""
b111111 9"
b0 2"
#1640000
0%
#1644100
1%
#1644200
1""
b1 2"
#1648200
0%
#1652300
1%
#1652400
0""
b1111111 9"
b0 2"
#1656400
0%
#1660500
1%
#1660600
1""
b1 2"
#1664600
0%
#1668700
1%
#1668800
0""
b11111111 9"
b0 2"
#1672800
0%
#1676900
1%
#1677000
1""
b1 2"
#1681000
0%
#1685100
1%
#1685200
bx101000 \
b110 P
0""
b1 9"
b0 2"
1!
1h
#1689200
0%
#1693300
1%
#1693400
1""
b1 2"
1:"
1<"
#1697400
0%
#1701500
1%
#1701600
0""
b110 3"
0<"
b11 9"
b0 2"
#1705600
0%
#1709700
1%
#1709800
1""
b1 2"
#1713800
0%
#1717900
1%
#1718000
0""
b111 9"
b0 2"
#1722000
0%
#1726100
1%
#1726200
1""
b1 2"
#1730200
0%
#1734300
1%
#1734400
0""
b1111 9"
b0 2"
#1738400
0%
#1742500
1%
#1742600
1""
b1 2"
#1746600
0%
#1750700
1%
#1750800
0""
b11111 9"
b0 2"
#1754800
0%
#1758900
1%
#1759000
1""
b1 2"
#1763000
0%
#1767100
1%
#1767200
0""
b111111 9"
b0 2"
#1771200
0%
#1775300
1%
#1775400
1""
b1 2"
#1779400
0%
#1783500
1%
#1783600
0""
b1111111 9"
b0 2"
#1787600
0%
#1791700
1%
#1791800
1""
b1 2"
#1795800
0%
#1799900
1%
#1800000
0""
b11111111 9"
b0 2"
#1804000
0%
#1808100
1%
#1808200
1""
b1 2"
#1812200
0%
#1816300
1%
#1816400
0""
b1 9"
b0 2"
0!
0h
#1820400
0%
#1824500
1%
#1824600
1""
b1 2"
0:"
1;"
#1828600
0%
#1832700
1%
#1832800
0""
0;"
b11 9"
b0 2"
b1111111 5"
#1836800
0%
#1840900
1%
#1841000
1""
b1 2"
#1845000
0%
#1849100
1%
#1849200
0""
b111 9"
b0 2"
#1853200
0%
#1857300
1%
#1857400
1""
b1 2"
#1861400
0%
#1865500
1%
#1865600
0""
b1111 9"
b0 2"
#1869600
0%
#1873700
1%
#1873800
1""
b1 2"
#1877800
0%
#1881900
1%
#1882000
0""
b11111 9"
b0 2"
#1886000
0%
#1890100
1%
#1890200
1""
b1 2"
#1894200
0%
#1898300
1%
#1898400
0""
b111111 9"
b0 2"
#1902400
0%
#1906500
1%
#1906600
1""
b1 2"
#1910600
0%
#1914700
1%
#1914800
0""
b1111111 9"
b0 2"
#1918800
0%
#1922900
1%
#1923000
1""
b1 2"
#1927000
0%
#1931100
1%
#1931200
0""
b11111111 9"
b0 2"
#1935200
0%
#1939300
1%
#1939400
1""
b1 2"
#1943400
0%
#1947500
1%
#1947600
b111 P
bx1010000 \
0""
b1 9"
b0 2"
1!
1h
#1951600
0%
#1955700
1%
#1955800
1""
b1 2"
1:"
1<"
#1959800
0%
#1963900
1%
#1964000
0""
b111 3"
0<"
b11 9"
b0 2"
#1968000
0%
#1972100
1%
#1972200
1""
b1 2"
#1976200
0%
#1980300
1%
#1980400
0""
b111 9"
b0 2"
#1984400
0%
#1988500
1%
#1988600
1""
b1 2"
#1992600
0%
#1996700
1%
#1996800
0""
b1111 9"
b0 2"
#2000800
0%
#2004900
1%
#2005000
1""
b1 2"
#2009000
0%
#2013100
1%
#2013200
0""
b11111 9"
b0 2"
#2017200
0%
#2021300
1%
#2021400
1""
b1 2"
#2025400
0%
#2029500
1%
#2029600
0""
b111111 9"
b0 2"
#2033600
0%
#2037700
1%
#2037800
1""
b1 2"
#2041800
0%
#2045900
1%
#2046000
0""
b1111111 9"
b0 2"
#2050000
0%
#2054100
1%
#2054200
1""
b1 2"
#2058200
0%
#2062300
1%
#2062400
0""
b11111111 9"
b0 2"
#2066400
0%
#2070500
1%
#2070600
1""
b1 2"
#2074600
0%
#2078700
1%
#2078800
0""
b1 9"
b0 2"
0!
0h
#2082800
0%
#2086900
1%
#2087000
1""
b1 2"
0:"
1;"
#2091000
0%
#2095100
1%
#2095200
0""
0;"
b11 9"
b0 2"
b11111111 5"
#2099200
0%
#2103300
1%
#2103400
1""
b1 2"
#2107400
0%
#2111500
1%
#2111600
0""
b111 9"
b0 2"
#2115600
0%
#2119700
1%
#2119800
1""
b1 2"
#2123800
0%
#2127900
1%
#2128000
0""
b1111 9"
b0 2"
#2132000
0%
#2136100
1%
#2136200
1""
b1 2"
#2140200
0%
#2144300
1%
#2144400
0""
b11111 9"
b0 2"
#2148400
0%
#2152500
1%
#2152600
1""
b1 2"
#2156600
0%
#2160700
1%
#2160800
0""
b111111 9"
b0 2"
#2164800
0%
#2168900
1%
#2169000
1""
b1 2"
#2173000
0%
#2177100
1%
#2177200
0""
b1111111 9"
b0 2"
#2181200
0%
#2185300
1%
#2185400
1""
b1 2"
#2189400
0%
#2193500
1%
#2193600
0""
b11111111 9"
b0 2"
#2197600
0%
#2201700
1%
#2201800
1""
b1 2"
#2205800
0%
#2209900
1%
#2210000
b10100000 \
b1000 P
0""
b1 9"
b0 2"
1!
1h
#2214000
0%
#2218100
1%
#2218200
1""
b1 2"
1:"
1<"
#2222200
0%
#2226300
1%
#2226400
0""
b1000 3"
0<"
b11 9"
b0 2"
#2230400
0%
#2234500
1%
#2234600
1""
b1 2"
#2238600
0%
#2242700
1%
#2242800
0""
b111 9"
b0 2"
#2246800
0%
#2250900
1%
#2251000
1""
b1 2"
#2255000
0%
#2259100
1%
#2259200
0""
b1111 9"
b0 2"
#2263200
0%
#2267300
1%
#2267400
1""
b1 2"
#2271400
0%
#2275500
1%
#2275600
0""
b11111 9"
b0 2"
#2279600
0%
#2283700
1%
#2283800
1""
b1 2"
#2287800
0%
#2291900
1%
#2292000
0""
b111111 9"
b0 2"
#2296000
0%
#2300100
1%
#2300200
1""
b1 2"
#2304200
0%
#2308300
1%
#2308400
0""
b1111111 9"
b0 2"
#2312400
0%
#2316500
1%
#2316600
1""
b1 2"
#2320600
0%
#2324700
1%
#2324800
0""
b11111111 9"
b0 2"
#2328800
0%
#2332900
1%
#2333000
1""
b1 2"
#2337000
0%
#2341100
1%
#2341200
0=
1<
0Z
1Q
b10100000 R
1_
1Y
0""
b1 9"
b0 2"
0!
0h
#2345200
0%
#2349300
1%
#2349400
1""
b11 7"
b1 2"
0:"
1;"
#2353400
0%
#2357500
1%
#2357600
b1011 K"
b1 z
b1 ~
b0 N"
0""
1o
0;"
b11 9"
b0 2"
b11 4"
#2361600
0%
#2365700
1%
#2365800
1""
0g
b1 2"
0o
1{
#2369800
0%
#2373900
1%
#2374000
0""
b111 9"
b0 2"
b1 5"
0{
#2378000
0%
#2382100
1%
#2382200
1""
b1 2"
#2386200
0%
#2390300
1%
#2390400
0""
b1111 9"
b0 2"
#2394400
0%
#2398500
1%
#2398600
1""
b1 2"
#2402600
0%
#2406700
1%
#2406800
0""
b11111 9"
b0 2"
#2410800
0%
#2414900
1%
#2415000
1""
b1 2"
#2419000
0%
#2423100
1%
#2423200
0""
b111111 9"
b0 2"
#2427200
0%
#2431200
1X
#2431300
1%
#2431400
1""
b1 2"
#2435400
0%
#2439500
1%
#2439600
0""
b1111111 9"
b0 2"
#2443600
0%
